<?xml version="1.0" encoding="UTF-8" standalone="no"?>
<svg
   width="318.96799"
   height="375.146"
   viewBox="0 0 318.96798 375.14599"
   version="1.1"
   id="svg8"
   sodipodi:docname="tg-logo-owl_grey_border.svg"
   inkscape:version="1.2.2 (b0a8486541, 2022-12-01)"
   xmlns:inkscape="http://www.inkscape.org/namespaces/inkscape"
   xmlns:sodipodi="http://sodipodi.sourceforge.net/DTD/sodipodi-0.dtd"
   xmlns="http://www.w3.org/2000/svg"
   xmlns:svg="http://www.w3.org/2000/svg">
  <defs
     id="defs12" />
  <sodipodi:namedview
     id="namedview10"
     pagecolor="#ffffff"
     bordercolor="#000000"
     borderopacity="0.25"
     inkscape:showpageshadow="2"
     inkscape:pageopacity="0.0"
     inkscape:pagecheckerboard="0"
     inkscape:deskcolor="#d1d1d1"
     showgrid="false"
     inkscape:zoom="1.3112885"
     inkscape:cx="508.66001"
     inkscape:cy="180.73827"
     inkscape:window-width="3440"
     inkscape:window-height="1371"
     inkscape:window-x="0"
     inkscape:window-y="0"
     inkscape:window-maximized="1"
     inkscape:current-layer="svg8" />
  <g
     id="g440"
     transform="translate(40.000133,39.999846)">
    <path
       fill="#ffffff"
       fill-opacity="0.917"
       d="M 61.677756,60.863 H 175.20476 c 33.09,0 59.916,26.824 59.916,59.915 v 45.727 c 0,33.09 -26.826,59.917 -59.917,59.917 H 61.676756 c -33.092,0 -59.9180001,-26.827 -59.9180001,-59.918 v -45.727 c 0,-33.09 26.8260001,-59.916 59.9180001,-59.916 z"
       id="path2" />
    <path
       fill="#1974bb"
       d="m 238.62576,167.845 c -1.152,28.382 -6.607,52.157 -16.357,71.283 -13.492,26.468 -35.653,43.847 -65.497,51.367 -23.17,5.837 -53.585,6.213 -76.218004,0.943 -14.674,-3.416 -28.202,-9.59 -38.652,-17.642 -25.58,-19.708 -39.0680001,-52.3 -41.52500012,-100.33 -0.445,-8.735 -0.525,-173.46399998 -0.082,-173.46399998 0.162,0 0.96000002,1.46999998 1.77000002,3.27199998 3.333,7.402 8.6170001,15.137 14.6020001,21.38 6.128,6.393 11.236,10.182 18.36,13.617 l 3.746,1.805 80.214004,0.005 80.214,0.007 4.27,-3.057 c 7.34,-5.252 11.545,-8.838 18.34,-15.645 6.89,-6.906 10.91,-11.877 14.412,-17.826 C 237.37576,1.602 238.47776,1.9060884e-8 238.67076,1.9060884e-8 239.09476,-0.00199998 239.05076,157.387 238.62776,167.842 Z m -12.535,-59.195 c -3.77,-17.33 -16.35,-31.568 -32.774,-37.093 -7.17,-2.412 -15.74,-3.185 -23.166,-2.087 -16.093,2.376 -30.04,12.506 -37.44,27.19 -5.664,11.238 -6.666,25.222 -2.69,37.467 6.59,20.28 25.616,34.123 47,34.195 13.822,0.047 25.44,-4.733 35.26,-14.507 8.214,-8.176 12.697,-17.2 14.525,-29.244 0.364,-2.412 -0.117,-13.182 -0.715,-15.923 z m -31.032,6.202 c -3.105,9.533 -12.853,15.125 -22.144,12.705 -11.547,-3.007 -17.382,-15.79 -12.03,-26.355 1.86,-3.672 6.18,-7.518 9.924,-8.84 9.164,-3.233 18.817,0.668 23.1,9.338 1.425,2.89 1.472,3.104 1.557,7.306 0.056,2.796 -0.087,4.863 -0.407,5.845 z m -56.194,58.8 c -1.892,-1.813 -5.125,-3.217 -9.66,-4.195 -4.802,-1.035 -15.827,-0.94 -20.277,0.173 -5.688,1.425 -9.303004,3.774 -10.043004,6.525 -0.74,2.745 0.735,7.18 4.370004,13.145 4.35,7.144 15.085,20.505 16.473,20.505 0.616,0 7.526,-8.233 11.45,-13.64 6.256,-8.623 9.295,-14.74 9.306,-18.738 0.005,-2.132 -0.06,-2.28 -1.62,-3.776 z m -28.322,-64.903 c -4.025,-19.63 -18.993004,-34.547 -39.077004,-38.94 -4.312,-0.944 -14.915,-0.94 -19.306,0.008 -19.99,4.315 -34.856,19.113 -39.114,38.932 -1.077,5.015 -1.152,14.603 -0.15,19.183 2.32,10.613 6.643,18.678 13.865,25.87 9.665,9.622 21.455,14.505 35.053,14.515 10.308,0.01 19.165,-2.676 27.82,-8.432 6.367,-4.234 13.233004,-12.023 16.762004,-19.014 2.254,-4.467 4.27,-11.4 5.01,-17.236 0.376,-2.95 -0.1,-11.172 -0.862,-14.887 z m -31.684004,5.637 c -1.778,6.466 -6.908,11.454 -13.563,13.186 -8.237,2.147 -17.194,-2.182 -20.97,-10.135 -1.236,-2.6 -1.39,-3.267 -1.544,-6.738 -0.142,-3.19 -0.035,-4.302 0.622,-6.463 3.062,-10.084 13.93,-15.45 24.057,-11.876 3.75,1.324 8.034,5.114 9.864,8.725 2.026,4 2.636,9.287 1.534,13.3 z"
       id="path4"
       sodipodi:nodetypes="ccccccscccccccccccccscccccccccccccccccccccsccccccccccccccccccccccccc"
       style="fill:#f2f2f2" />
  </g>
</svg>
