<?xml version="1.0" encoding="UTF-8" standalone="no"?>
<svg
   xmlns:dc="http://purl.org/dc/elements/1.1/"
   xmlns:cc="http://creativecommons.org/ns#"
   xmlns:rdf="http://www.w3.org/1999/02/22-rdf-syntax-ns#"
   xmlns:svg="http://www.w3.org/2000/svg"
   xmlns="http://www.w3.org/2000/svg"
   xmlns:sodipodi="http://sodipodi.sourceforge.net/DTD/sodipodi-0.dtd"
   xmlns:inkscape="http://www.inkscape.org/namespaces/inkscape"
   width="100mm"
   height="120mm"
   viewBox="0 0 100 120"
   version="1.1"
   id="svg865"
   inkscape:version="1.0.1 (3bc2e813f5, 2020-09-07)"
   sodipodi:docname="wanne.svg">
  <defs
     id="defs859" />
  <sodipodi:namedview
     id="base"
     pagecolor="#ffffff"
     bordercolor="#666666"
     borderopacity="1.0"
     inkscape:pageopacity="0.0"
     inkscape:pageshadow="2"
     inkscape:zoom="0.7696457"
     inkscape:cx="207.0961"
     inkscape:cy="176.20427"
     inkscape:document-units="mm"
     inkscape:current-layer="layer1"
     inkscape:document-rotation="0"
     showgrid="false"
     inkscape:window-width="1309"
     inkscape:window-height="1199"
     inkscape:window-x="0"
     inkscape:window-y="27"
     inkscape:window-maximized="0" />
  <metadata
     id="metadata862">
    <rdf:RDF>
      <cc:Work
         rdf:about="">
        <dc:format>image/svg+xml</dc:format>
        <dc:type
           rdf:resource="http://purl.org/dc/dcmitype/StillImage" />
        <dc:title></dc:title>
      </cc:Work>
    </rdf:RDF>
  </metadata>
  <g
     inkscape:label="Ebene 1"
     inkscape:groupmode="layer"
     id="layer1">
    <path
       style="fill:#000000;stroke-width:1"
       d="m 11.344109,114.88064 c 0.01103,-0.65211 0.617598,-0.92744 2.788447,-1.26571 l 2.366876,-0.36883 -1.719792,-0.0605 c -0.945885,-0.0333 -1.917603,-0.0411 -2.159372,-0.0174 -0.24177,0.0237 -0.51366,-0.0767 -0.604201,-0.22323 -0.106628,-0.17253 0.654057,-0.24711 2.159373,-0.21171 1.278196,0.0301 6.669773,0.0152 11.981284,-0.0331 5.31151,-0.0483 10.847916,-0.0197 12.303125,0.0634 8.12139,0.4639 18.713317,0.58004 19.309262,0.21172 0.311018,-0.19222 1.773388,-0.22391 14.689696,-0.31838 5.457031,-0.0399 10.16,0.0141 10.451042,0.11998 0.291041,0.10589 0.05806,-0.087 -0.517742,-0.42876 -1.901698,-1.12858 -1.796852,-3.45135 0.211828,-4.69278 0.493646,-0.30509 1.132266,-0.55471 1.419153,-0.55471 0.662924,0 1.056169,-0.8606 1.533705,-3.35645 0.414068,-2.16414 0.309745,-2.69088 -0.792353,-4.000652 -0.583528,-0.693473 -0.90265,-0.844971 -1.779897,-0.844971 -1.089303,0 -1.517758,0.282421 -4.10959,2.708873 -1.662679,1.55659 -0.83665,0.46551 1.226166,-1.619602 1.822077,-1.841778 2.194753,-2.387309 2.944977,-4.310923 0.472403,-1.211267 0.940766,-2.976213 1.040807,-3.922098 0.213487,-2.018504 0.664628,-1.570493 0.485992,0.482618 -0.108077,1.242153 -0.08974,1.281272 0.600472,1.281272 0.798565,0 2.975454,1.697786 4.148026,3.235108 1.170181,1.534189 1.15034,5.044885 -0.04427,7.833295 -0.418042,0.97577 -1.207897,3.63553 -1.207897,4.06746 0,0.23764 0.135863,0.24407 0.543835,0.0257 0.847217,-0.45342 1.199425,-0.15507 0.419901,0.3557 -1.121346,0.73473 -3.757914,1.32048 -4.399116,0.97732 -0.406378,-0.21749 -0.479845,-0.40164 -0.296735,-0.74378 0.258035,-0.48213 0.0942,-1.90429 -0.219382,-1.90429 -0.435401,0 -2.432807,1.76434 -2.55683,2.25849 -0.200861,0.80029 0.329062,1.95329 1.013478,2.20511 0.848395,0.31214 7.19269,-0.31026 7.790815,-0.76431 0.868209,-0.65909 1.143617,-1.14174 1.143617,-2.00419 0,-0.71704 -0.134152,-0.89908 -0.859896,-1.16683 -0.941594,-0.34739 -0.574728,-0.68008 0.462785,-0.41968 0.471189,0.11826 0.683853,0.40192 0.811517,1.08243 0.436917,2.32896 -0.902716,3.46697 -4.387008,3.72672 -2.278899,0.16989 -3.588573,0.63851 -1.784472,0.63851 0.529839,0 1.036928,0.11906 1.126866,0.26458 0.08994,0.14552 0.424386,0.25271 0.743219,0.23821 0.539642,-0.0246 0.533993,-0.041 -0.08176,-0.23821 -0.813231,-0.26044 -0.117502,-0.32777 1.02526,-0.0992 0.492268,0.0984 0.826823,0.32862 0.826823,0.56883 0,0.35399 -0.575757,0.37867 -4.696354,0.20131 -2.582995,-0.11118 -4.874948,-0.18645 -5.093229,-0.16726 -0.218281,0.0192 -1.66529,0.0255 -3.215574,0.0141 -1.842884,-0.0136 -2.883138,0.0835 -3.004828,0.28036 -0.131159,0.21222 -1.056841,0.25304 -3.134426,0.13823 -3.726146,-0.2059 -5.449533,-0.24088 -7.446214,-0.1511 l -1.5875,0.0714 1.455209,0.25794 c 2.078064,0.36834 2.271593,0.73834 0.383645,0.73348 -0.928512,-0.002 -1.433285,-0.0935 -1.230569,-0.22207 0.475658,-0.30172 -4.556019,-0.88879 -7.35516,-0.85816 -2.968323,0.0325 -5.31614,0.30146 -5.138613,0.58871 0.195805,0.31682 -3.6278,0.28566 -4.121803,-0.0336 -0.306674,-0.19819 -0.216472,-0.26197 0.396875,-0.28065 2.020443,-0.0615 4.038446,-0.26919 4.7625,-0.49006 0.568573,-0.17345 -0.407186,-0.25748 -3.439584,-0.29621 -2.328333,-0.0297 -4.343606,-0.033 -4.478388,-0.007 -0.134778,0.0258 -1.801653,0.0902 -3.704166,0.14312 -9.748817,0.27127 -13.9017,0.41521 -15.100779,0.52338 -3.487312,0.31461 -5.531141,0.38466 -4.653879,0.15951 0.780727,-0.20037 3.025094,-0.42413 7.035129,-0.70138 0.582083,-0.0402 2.298568,-0.0812 3.814411,-0.091 1.51584,-0.01 2.694577,-0.0793 2.619412,-0.1545 -0.181653,-0.18165 -11.931166,-0.1595 -13.419389,0.0253 -0.805576,0.10003 -1.232658,0.0375 -1.385011,-0.20273 -0.16047,-0.25304 -0.223663,-0.20368 -0.232745,0.18181 l -0.01247,0.52917 -0.424055,-0.52917 c -0.344409,-0.42978 -0.394083,-0.4422 -0.264473,-0.0661 0.109738,0.3184 0.01755,0.47245 -0.295134,0.49319 -2.473143,0.16408 -4.121977,0.50331 -4.614992,0.94948 -0.258463,0.23391 -0.468109,0.31753 -0.465881,0.18584 z m 75.550349,-5.66944 c 0.666033,-0.25322 0.703776,-0.35377 0.587406,-1.56485 -0.105952,-1.10264 -0.01251,-1.46078 0.631196,-2.41923 0.998331,-1.48648 1.543664,-3.40364 1.543664,-5.426859 0,-1.513152 -0.08357,-1.75373 -1.021189,-2.939912 -1.603788,-2.028942 -2.563979,-2.724367 -3.761613,-2.724367 -1.037516,0 -1.198062,0.192635 -1.055542,1.266523 0.02484,0.187264 -0.321323,0.981073 -0.769279,1.76402 l -0.814464,1.423535 0.999064,-0.10423 c 1.196311,-0.12481 1.906575,0.382354 2.719401,1.9418 0.541086,1.0381 0.545584,1.13475 0.149826,3.22101 -0.224399,1.18294 -0.534133,2.38648 -0.688295,2.67454 -0.154163,0.28806 -0.20501,0.64556 -0.112991,0.79444 0.09202,0.14889 0.04812,0.41432 -0.09756,0.58985 -0.327218,0.39427 -0.329626,0.71387 -0.0099,1.31133 0.283747,0.53018 0.690695,0.57623 1.70025,0.1924 z m -74.281093,5.64613 c 0.190996,-0.0764 0.419198,-0.067 0.507117,0.0209 0.08792,0.0879 -0.06835,0.15045 -0.347265,0.13896 -0.308224,-0.0127 -0.370919,-0.0754 -0.159852,-0.15985 z m 17.159332,0.004 c -0.35214,-0.35214 -0.163235,-0.61669 0.418922,-0.58667 0.453031,0.0234 0.483873,0.0598 0.129054,0.15231 -0.256445,0.0669 -0.398246,0.23168 -0.315117,0.36619 0.175012,0.28317 0.02582,0.32684 -0.232859,0.0682 z m 22.577777,-0.1038 c 0,-0.15411 0.119062,-0.20662 0.264583,-0.11668 0.145521,0.0899 0.264583,0.21603 0.264583,0.2802 0,0.0642 -0.119062,0.11668 -0.264583,0.11668 -0.145521,0 -0.264583,-0.12609 -0.264583,-0.2802 z m -36.441319,-0.16744 c 0.257431,-0.0671 0.614618,-0.0627 0.79375,0.01 0.179131,0.0725 -0.03149,0.12736 -0.468056,0.12197 -0.436563,-0.005 -0.583125,-0.0647 -0.325694,-0.13177 z m 35.333376,0.003 c 0.190995,-0.0764 0.419198,-0.067 0.507119,0.0209 0.08792,0.0879 -0.06835,0.15045 -0.347266,0.13897 -0.308226,-0.0127 -0.370919,-0.0754 -0.159853,-0.15986 z m -32.543439,-2.62143 c -1.326736,-0.40559 -1.590301,-0.7994 -1.666135,-2.48953 -0.02967,-0.6612 0.134018,-1.09268 0.572358,-1.50872 0.33765,-0.32047 0.613909,-0.76932 0.613909,-0.99744 0,-0.53833 1.251107,-2.52092 1.590819,-2.52092 0.143695,0 0.261264,-0.11906 0.261264,-0.26458 0,-0.14552 -0.165855,-0.26459 -0.368568,-0.26459 -0.202712,0 -0.4371,-0.17859 -0.520862,-0.39687 -0.17746,-0.46245 0.127046,-0.52426 0.541414,-0.10989 0.157842,0.15784 0.568607,0.24714 0.912813,0.19843 0.492079,-0.0696 0.216605,-0.28199 -1.288979,-0.9937 -2.441232,-1.154 -4.097995,-3.129258 -5.565557,-6.635469 -0.982037,-2.346222 -0.643677,-2.0212 0.7087,0.680768 0.583285,1.165368 1.419485,2.471203 1.858221,2.901855 0.438736,0.430656 0.801009,0.917086 0.805052,1.080956 0.004,0.16388 0.870552,0.74741 1.925578,1.29674 1.055026,0.54934 2.260385,1.23752 2.678575,1.52931 0.729736,0.50918 1.030133,0.52341 7.461778,0.35348 3.685788,-0.0974 6.915507,-0.24403 7.177156,-0.32589 0.382386,-0.11964 0.397854,-0.0996 0.07885,0.10187 -0.348089,0.2199 -2.111473,0.41584 -6.35,0.7056 -0.654844,0.0448 -2.116307,0.095 -3.247695,0.11168 -1.915543,0.0282 -2.073699,0.074 -2.298784,0.66606 -0.311503,0.81931 -0.663093,1.0227 -1.826305,1.05649 -0.788,0.0229 -0.992347,0.1524 -1.208247,0.76577 -0.210002,0.59663 -0.142729,0.95263 0.350704,1.8559 0.730836,1.33786 0.658024,2.21516 -0.23634,2.84762 -0.990746,0.70063 -1.593002,0.77288 -2.959715,0.35507 z m 2.35564,-0.53733 c 0.757587,-0.2031 1.017672,-1.04709 0.576628,-1.87119 l -0.347703,-0.64969 -0.275915,0.98341 c -0.349858,1.24694 -0.927084,1.63561 -1.914661,1.28923 -0.505455,-0.17729 -0.835675,-0.54946 -1.037139,-1.16891 -0.267647,-0.82295 -0.312779,-0.8546 -0.477679,-0.33505 -0.239801,0.75555 0.226694,1.58653 0.97111,1.72987 0.952755,0.18345 1.873732,0.19166 2.505359,0.0223 z m -0.880555,-0.84626 c 0.07375,-0.11933 0.18818,-0.50629 0.25428,-0.85989 0.0661,-0.35361 0.161609,-0.80319 0.212244,-0.99908 0.125063,-0.48381 -0.829792,-0.81645 -1.561582,-0.54399 -0.760349,0.28308 -0.852811,1.9145 -0.132291,2.33416 0.567512,0.33055 1.048903,0.35753 1.227349,0.0688 z m 0.690814,-3.39173 c 1.52e-4,-0.69391 0.952896,-1.43655 1.940102,-1.51225 0.907129,-0.0696 1.483991,-0.4671 1.495496,-1.0306 0.0022,-0.10914 -0.144777,-0.21175 -0.326678,-0.22802 -0.181901,-0.0163 -0.734905,-0.0757 -1.228897,-0.13218 -2.076673,-0.23724 -3.442553,0.61108 -3.975413,2.46905 l -0.225055,0.78472 1.160189,-0.0247 c 0.677121,-0.0144 1.160217,-0.15015 1.160256,-0.32607 z m 50.270899,4.63044 c 0,-0.12534 0.297657,-0.2279 0.661459,-0.2279 0.363802,0 0.661458,0.0456 0.661458,0.10145 0,0.0558 -0.297656,0.15835 -0.661458,0.22789 -0.363802,0.0695 -0.661459,0.0239 -0.661459,-0.10144 z m 3.042709,0.015 c -0.873125,-0.0847 -1.200547,-0.17398 -0.727605,-0.19844 0.840497,-0.0435 1.123739,-0.37935 0.595313,-0.70594 -0.145521,-0.0899 -0.264583,-0.39462 -0.264583,-0.67707 0,-0.28245 0.119062,-0.51355 0.264583,-0.51355 0.145521,0 0.264583,0.2301 0.264583,0.51133 0,0.51561 0.214046,0.6287 1.79105,0.94627 1.123031,0.22615 3.150856,-0.89381 3.397472,-1.87641 0.215685,-0.85935 0.05082,-0.99651 -1.152443,-0.95882 -0.925941,0.029 -0.958509,0.005 -0.47978,-0.35396 0.282475,-0.21179 0.609897,-0.38508 0.727604,-0.38508 0.377026,0 0.22864,-2.90841 -0.189656,-3.71731 -0.387061,-0.74849 -0.476869,-0.78028 -2.182812,-0.77256 -1.337768,0.006 -1.664274,0.075 -1.316117,0.27773 0.822423,0.47902 1.287031,1.76081 1.228288,3.38868 -0.03041,0.84271 0.02241,1.65791 0.117364,1.81157 0.09496,0.15364 -0.0053,0.34763 -0.222697,0.43107 -0.217445,0.0834 -0.395356,0.4006 -0.395356,0.7048 0,0.3309 -0.115549,0.48167 -0.287634,0.37532 -0.158197,-0.0978 -0.227097,-0.40926 -0.153106,-0.6922 0.108392,-0.41449 0.0632,-0.45523 -0.232638,-0.20971 -0.20194,0.1676 -0.519996,0.25 -0.706789,0.18312 -0.203589,-0.0729 0.0041,-0.32137 0.518599,-0.62033 0.803254,-0.46678 0.858266,-0.59193 0.858906,-1.95393 7.94e-4,-1.71335 -0.734189,-3.175 -1.596564,-3.175 -0.301768,0 -0.482897,-0.10642 -0.402508,-0.23649 0.146536,-0.23711 -5.123366,-0.5091 -12.153474,-0.62728 -4.297583,-0.0722 -14.508742,0.25775 -18.917709,0.61136 -1.673489,0.13422 -3.638021,0.23039 -4.365625,0.21372 -1.883984,-0.0432 3.285638,-0.69777 6.095011,-0.77178 1.169442,-0.0308 3.133973,-0.22661 4.365625,-0.43511 1.774743,-0.30045 3.941125,-0.34515 10.441448,-0.21547 4.511145,0.09 8.618802,0.21362 9.128125,0.27473 0.509323,0.0611 2.531036,0.16332 4.492693,0.22713 2.726,0.0887 3.73584,0.0285 4.284464,-0.25518 0.394796,-0.20415 0.778857,-0.27242 0.85347,-0.15169 0.07461,0.12073 0.498088,0.1663 0.941056,0.10129 0.87275,-0.12809 1.039789,0.10764 0.406832,0.57414 -0.318863,0.23501 -0.345319,0.4786 -0.132292,1.21805 0.146452,0.50836 0.266277,1.51102 0.266277,2.22813 0,0.8219 0.155905,1.4761 0.421801,1.76991 1.036929,1.14579 -0.61608,3.23638 -2.859693,3.61669 -0.623692,0.10572 -1.848358,0.12294 -2.721483,0.0383 z m -5.088195,-0.16169 c 0.257432,-0.0671 0.61462,-0.0627 0.79375,0.01 0.179131,0.0725 -0.03149,0.12736 -0.468055,0.12197 -0.436563,-0.005 -0.583126,-0.0647 -0.325695,-0.13177 z m 7.193982,-1.68633 c -0.09592,-0.1552 -0.117655,-0.33893 -0.0483,-0.40829 0.06935,-0.0694 0.196601,0.0576 0.282773,0.28219 0.178906,0.46622 0.02643,0.54823 -0.234473,0.1261 z M 12.931609,93.196711 c -0.0022,-0.298318 -0.10977,-0.655505 -0.238982,-0.79375 -0.129211,-0.138245 -0.305713,-0.906198 -0.392227,-1.706563 -0.08651,-0.800364 -0.204883,-1.693333 -0.263042,-1.984375 -0.29088,-1.455616 -0.450948,-2.845128 -0.556946,-4.834705 -0.06414,-1.20388 -0.189172,-2.306272 -0.277854,-2.449764 -0.08868,-0.143491 -0.06608,-0.527716 0.05023,-0.853836 0.170471,-0.477991 0.237901,-0.336471 0.347807,0.729972 0.107992,1.047874 0.232011,1.315376 0.596511,1.286642 0.257322,-0.02029 0.385147,0.08512 0.289975,0.239115 -0.169827,0.274785 -0.295401,1.351989 -0.3619,3.104451 -0.01933,0.509323 0.227517,1.997604 0.548541,3.307292 0.321024,1.309687 0.574824,2.610464 0.564001,2.890615 -0.01082,0.280152 0.230836,0.726636 0.53702,0.992188 0.306184,0.265552 0.426445,0.482822 0.267246,0.482822 -0.159199,0 -0.370893,-0.131773 -0.470432,-0.29283 -0.126162,-0.204134 -0.249875,-0.1841 -0.408438,0.06615 -0.169914,0.268158 -0.228483,0.221755 -0.23151,-0.18342 z m 72.625533,-2.632604 c 1.527871,-3.614037 2.487338,-6.230732 2.643659,-7.209896 0.244348,-1.530567 -0.250182,-1.454735 -0.641247,0.09833 -0.169349,0.672545 -0.366916,1.163802 -0.439036,1.091682 -0.197665,-0.197668 0.699733,-3.994841 1.015965,-4.298866 0.188058,-0.180797 0.223613,-0.117961 0.112276,0.198438 -0.09007,0.255982 -0.03498,0.463021 0.123209,0.463021 0.188312,0 0.246523,0.610589 0.170267,1.785937 -0.09064,1.397114 -0.420439,2.505983 -1.514816,5.09323 -0.769422,1.81901 -1.515666,3.426354 -1.658324,3.571875 -0.142655,0.145521 -0.05804,-0.211667 0.188047,-0.793751 z M 13.19214,86.06619 c -0.189851,-0.228756 -0.215565,-0.396875 -0.0607,-0.396875 0.14777,0 0.337205,0.178594 0.420968,0.396875 0.08376,0.218281 0.111079,0.396875 0.0607,0.396875 -0.05037,0 -0.23981,-0.178594 -0.420968,-0.396875 z M 8.243261,79.252126 C 7.1029514,78.0001 6.7762492,76.462442 7.4020875,75.293052 7.6609,74.809457 7.6363435,74.764436 7.20365,74.929247 c -0.3267385,0.124452 -0.4042873,0.09945 -0.2292176,-0.0739 0.5402662,-0.534964 4.4865756,-1.356866 6.5148976,-1.356866 1.127286,0 2.325253,-0.102383 2.662148,-0.227518 0.380181,-0.141213 1.490992,-0.08039 2.928322,0.160338 1.273682,0.21332 2.523838,0.296222 2.778125,0.184224 0.254287,-0.111998 0.611168,-0.199033 0.793069,-0.19341 0.181901,0.0056 1.461823,0.02511 2.844271,0.04329 1.56863,0.02064 2.513542,0.138195 2.513542,0.312706 0,0.262263 -1.121201,0.290208 -7.14375,0.178046 -8.302904,-0.15463 -11.5729672,0.154723 -12.926731,1.222881 -0.5364325,0.423261 -0.241654,2.6763 0.477405,3.648879 0.7093968,0.959511 0.5876958,1.258845 -0.17247,0.424206 z m 1.4378208,0.290452 c -0.400839,-0.304302 -0.07665,-0.34971 2.2489582,-0.315013 1.49452,0.0223 3.470987,-0.05514 4.39215,-0.172095 2.437456,-0.309457 18.760057,-0.607743 18.371654,-0.33573 -0.179531,0.125732 -2.084531,0.252129 -4.233334,0.280884 -3.498146,0.04681 -7.735125,0.227232 -17.26837,0.735341 -2.339753,0.124703 -3.15091,0.08003 -3.5110582,-0.193387 z M 86.481724,79.327617 c 0,-0.140951 0.178593,-0.187745 0.396875,-0.103984 0.218281,0.08376 0.396875,0.199089 0.396875,0.256281 0,0.05719 -0.178594,0.103984 -0.396875,0.103984 -0.218282,0 -0.396875,-0.115327 -0.396875,-0.256281 z m 1.127754,0.09866 c 0.07974,-0.07973 1.017159,-0.19998 2.083163,-0.267213 1.644155,-0.103695 2.049349,-0.228737 2.670926,-0.824246 0.937882,-0.898546 0.925026,-1.452501 -0.0528,-2.275287 -1.16104,-0.97695 -3.123076,-1.526011 -5.886551,-1.647312 -1.35082,-0.05929 -3.352776,-0.213555 -4.448789,-0.342807 -1.096012,-0.129249 -2.762887,-0.19014 -3.704166,-0.13531 -4.554194,0.265287 -5.304367,0.273494 -5.436632,0.05948 -0.07836,-0.126788 0.37057,-0.24461 0.997622,-0.261826 0.627052,-0.01723 1.497282,-0.122195 1.933845,-0.233281 0.642588,-0.16351 0.478829,-0.211812 -0.859896,-0.253632 -4.639334,-0.144923 -8.003646,-0.03132 -8.003646,0.270264 0,0.154667 0.208359,0.260019 0.463021,0.234114 0.254661,-0.0259 1.117864,-0.01156 1.918229,0.03189 1.347208,0.07312 1.298115,0.09011 -0.661458,0.228904 -1.164167,0.08245 -2.617489,0.08029 -3.229608,-0.0048 -0.833239,-0.11585 -1.149874,-0.05849 -1.259901,0.228238 -0.118123,0.307824 -0.224226,0.318852 -0.540705,0.0562 -0.216559,-0.179737 -0.393745,-0.221165 -0.393745,-0.09207 0,0.129093 -2.470547,0.270602 -5.490104,0.314462 -3.019557,0.04386 -6.621198,0.187873 -8.003646,0.320024 -1.382448,0.132152 -2.751666,0.234977 -3.042708,0.228502 l -0.529167,-0.01177 0.529167,-0.227391 c 0.291042,-0.125066 1.114557,-0.23576 1.830036,-0.245986 2.59081,-0.03704 0.867743,-0.374444 -2.285834,-0.447606 -2.300682,-0.05337 -3.290993,0.01672 -3.434916,0.243152 -0.147661,0.232307 -0.203319,0.235198 -0.206277,0.01071 -0.0024,-0.181435 -0.302249,-0.268493 -0.731655,-0.21242 -1.662814,0.217127 -6.680729,0.272372 -6.680729,0.07355 0,-0.118337 0.02977,-0.228568 0.06615,-0.244954 0.286411,-0.129018 15.053754,-0.203348 15.381904,-0.07743 0.233151,0.08947 0.342209,0.299022 0.24235,0.465672 -0.134601,0.224634 -0.08288,0.226875 0.199956,0.0087 0.209836,-0.161891 0.898994,-0.271314 1.531464,-0.243165 0.752163,0.03348 1.196692,-0.07063 1.285079,-0.300966 0.105389,-0.274635 1.191768,-0.354688 4.935471,-0.363673 2.640185,-0.0063 5.33612,-0.126936 5.990963,-0.267996 2.411503,-0.519465 9.457172,-0.599848 12.877287,-0.146913 1.770999,0.234537 3.936862,0.426432 4.813033,0.426432 0.876167,0 1.667819,0.121004 1.759222,0.268898 0.0914,0.147895 0.266367,0.206987 0.388805,0.131316 0.469099,-0.28992 2.349982,-0.151636 4.724019,0.34731 2.656994,0.558417 3.732877,1.244294 4.241785,2.704148 0.212124,0.608499 0.158633,0.819044 -0.317776,1.25081 -1.23368,1.118068 -1.872675,1.34316 -3.851753,1.356804 -1.075804,0.0074 -1.890769,-0.05175 -1.811034,-0.131487 z M 60.99861,73.934374 c 0.09422,-0.09422 -1.068927,-0.151902 -2.584767,-0.128182 -2.21682,0.03469 -2.471349,0.07425 -1.300869,0.202202 1.773234,0.193842 3.653591,0.158023 3.885636,-0.07402 z m 12.650822,5.07455 c -1.164167,-0.132001 -3.518585,-0.191812 -5.23204,-0.132911 -1.713455,0.0589 -3.176199,0.0087 -3.250544,-0.111622 -0.148802,-0.240766 -8.452443,-0.237792 -12.776115,0.0046 -2.613721,0.146516 -3.762786,-0.02193 -2.21999,-0.325416 0.983938,-0.193559 23.53065,-0.132011 28.638064,0.07817 3.93146,0.161792 3.800814,0.359841 -0.198438,0.30082 -1.111501,-0.0164 -1.918229,0.0821 -1.918229,0.234231 0,0.291843 -0.05437,0.290988 -3.042708,-0.04785 z m 9.392708,-0.281075 c 0,-0.252142 1.455113,-0.210333 2.513542,0.07222 0.604353,0.161335 0.399172,0.202134 -0.859896,0.170979 -0.909505,-0.02249 -1.653646,-0.131945 -1.653646,-0.243199 z m -54.76875,-4.77683 c 0,-0.329692 0.328517,-0.375047 1.918229,-0.264821 2.390334,0.165738 2.662436,0.34145 0.528757,0.34145 -0.885476,0 -1.798288,0.07227 -2.028471,0.160599 -0.267275,0.102563 -0.418515,0.01684 -0.418515,-0.237228 z m 5.362848,-0.106725 c 0.257431,-0.06708 0.614619,-0.06267 0.79375,0.0098 0.179131,0.07248 -0.03149,0.127363 -0.468056,0.121971 -0.436563,-0.0054 -0.583126,-0.06469 -0.325694,-0.131773 z m 37.714626,0.0026 c 0.190995,-0.07643 0.419201,-0.06703 0.507119,0.02088 0.08792,0.08792 -0.06835,0.150452 -0.347265,0.138964 -0.308227,-0.0127 -0.37092,-0.07539 -0.159854,-0.15985 z m -7.638873,-1.69994 c -0.951068,-0.742233 -3.429076,-0.976937 -4.249248,-0.402468 -0.786013,0.550548 -0.955997,0.541954 -1.146399,-0.05795 -0.168556,-0.531098 -1.196105,-1.098518 -1.98927,-1.098518 -0.273029,0 -0.850162,0.297656 -1.282515,0.661458 -0.982218,0.826482 -1.04044,0.823608 -1.04044,-0.05136 0,-0.890227 -1.27046,-2.096243 -1.770813,-1.680988 -0.180618,0.1499 -0.390893,0.210048 -0.467278,0.133663 -0.07639,-0.07639 -0.530281,0.306895 -1.008658,0.851736 l -0.869776,0.990621 -0.384431,-0.578985 c -0.299442,-0.450983 -0.490837,-0.522036 -0.865738,-0.321395 -0.346707,0.185552 -0.713314,0.128416 -1.310934,-0.204314 l -0.829627,-0.461899 -0.905719,1.058334 c -1.001837,1.170651 -1.199711,1.001688 -0.387321,-0.33073 0.288359,-0.472942 0.734398,-0.873606 0.991198,-0.890362 0.787357,-0.05138 1.521605,0.07134 1.595567,0.266673 0.03868,0.102151 0.485161,0.137298 0.992187,0.07811 0.634074,-0.07403 0.921864,-5.29e-4 0.921864,0.235411 0,0.199628 0.304171,0.05933 0.727604,-0.3356 0.400183,-0.373248 0.983023,-0.809758 1.295202,-0.970021 0.375124,-0.192577 0.673886,-0.734449 0.881039,-1.597954 0.172392,-0.718611 0.547341,-1.518245 0.83322,-1.776963 0.455859,-0.412546 0.437309,-0.293219 -0.150849,0.970315 -0.368845,0.79239 -0.671793,1.57553 -0.673214,1.74031 -0.0013,0.164782 0.46613,0.768315 1.039003,1.341189 0.952182,0.952185 1.094121,1.012436 1.653646,0.70196 0.336632,-0.186793 0.885862,-0.343844 1.220509,-0.348998 0.725223,-0.01117 2.07989,0.647311 2.224561,1.081331 0.07748,0.232433 0.241512,0.233799 0.66797,0.0056 0.600602,-0.321432 2.474574,-0.364109 3.41254,-0.07771 0.67118,0.204936 1.950019,1.139783 1.950019,1.425488 0,0.325147 -0.349644,0.209246 -1.073899,-0.355978 z m -49.937767,-0.02435 c -0.474936,-0.474935 -0.382778,-1.721533 0.156348,-2.114894 0.260616,-0.190151 0.744974,-0.732684 1.07635,-1.205627 0.331376,-0.472943 0.790373,-0.859896 1.019995,-0.859896 0.303442,0 0.226241,0.177247 -0.2826,0.648825 -0.870738,0.806974 -0.881105,1.100463 -0.04627,1.309991 0.757158,0.190035 1.360666,1.084583 0.916791,1.358914 -0.155596,0.09616 -0.354355,0.103388 -0.441688,0.01606 -0.08733,-0.08734 -0.0053,-0.15879 0.182292,-0.15879 0.273181,0 0.27551,-0.079 0.0117,-0.396875 -0.181158,-0.218281 -0.582689,-0.393089 -0.892293,-0.388461 -0.551874,0.0083 -0.552841,0.01603 -0.04932,0.396875 0.68943,0.521459 0.158994,0.499105 -0.589018,-0.02482 -0.534982,-0.374716 -0.604867,-0.374661 -0.748864,5.29e-4 -0.08735,0.227632 -0.08418,0.711266 0.007,1.074743 0.18665,0.743672 0.135088,0.798917 -0.320464,0.343366 z m 54.112882,-0.0223 c -0.09677,-0.252191 -0.04865,-0.784919 0.106934,-1.183836 0.523041,-1.341046 0.382791,-4.628328 -0.255389,-5.985995 -0.613429,-1.305015 -0.993616,-1.67037 -0.564962,-0.542922 0.310478,0.816618 0.316365,0.908817 0.05804,0.908817 -0.109998,0 -0.364551,-0.371755 -0.565672,-0.826121 -0.488971,-1.10466 -1.83497,-2.609377 -2.591397,-2.896968 -0.336429,-0.127921 -0.611685,-0.367321 -0.611685,-0.532014 0,-0.16469 0.178593,-0.227169 0.396875,-0.13884 1.364929,0.552331 1.353997,0.552246 0.900139,0.007 -0.232527,-0.279339 -0.514784,-0.668594 -0.62724,-0.865013 -0.329012,-0.574662 0.661421,0.04896 1.533644,0.965658 0.411517,0.432496 0.947298,0.757489 1.190625,0.722201 0.243329,-0.03529 0.293587,-0.01299 0.111686,0.04956 -0.451459,0.155229 -0.427003,0.248587 0.322543,1.231292 1.111319,1.457012 1.496062,2.72284 1.491265,4.906327 l -0.0045,2.033548 0.980485,7.94e-4 c 0.657214,5.29e-4 1.197684,-0.200105 1.639242,-0.608542 0.658715,-0.609306 1.854787,-0.836768 1.854787,-0.352734 0,0.141136 0.429459,-0.03483 0.954352,-0.391031 0.990799,-0.672372 1.803099,-0.572063 2.123234,0.262192 0.114655,0.298791 0.285186,0.295939 1.034889,-0.0173 1.562719,-0.652947 3.690752,-0.421166 3.961368,0.431461 0.09745,0.307052 0.459716,0.51484 0.988081,0.566746 0.616468,0.06056 0.964409,0.30575 1.332992,0.939337 0.274325,0.471559 0.45221,0.997074 0.395298,1.16781 -0.05691,0.170738 -0.369718,-0.140814 -0.695124,-0.692335 -0.555694,-0.94183 -0.654079,-0.994392 -1.619049,-0.864963 -0.977363,0.131093 -1.025165,0.103725 -0.981411,-0.561919 0.04458,-0.678228 0.0013,-0.699477 -1.409213,-0.691619 -0.835139,0.0047 -1.838934,0.201946 -2.355755,0.463021 -1.111282,0.561369 -1.030433,0.571206 -1.131572,-0.137694 -0.123833,-0.867961 -0.949839,-0.887513 -1.830959,-0.04335 -0.738879,0.70789 -0.781887,0.716912 -1.132388,0.237575 -0.346604,-0.474007 -0.397896,-0.476277 -1.053674,-0.0466 -0.379135,0.24842 -0.763662,0.747821 -0.854509,1.109781 -0.175305,0.698466 -0.90156,0.921486 -0.90156,0.276853 0,-1.128308 -1.469183,-0.546116 -1.795015,0.711308 -0.17109,0.660255 -0.258276,0.745905 -0.395436,0.388469 z M 51.461042,71.514106 c -0.08376,-0.218281 -0.03697,-0.396875 0.103984,-0.396875 0.140954,0 0.256281,0.178594 0.256281,0.396875 0,0.218281 -0.04679,0.396875 -0.103984,0.396875 -0.05719,0 -0.172516,-0.178594 -0.256281,-0.396875 z M 32.954668,69.687947 c -0.534003,-1.298678 -1.468974,-1.81323 -1.698675,-0.934845 -0.184888,0.707015 -0.601353,0.644261 -0.601353,-0.09061 0,-1.46836 -1.79601,-1.713505 -2.425869,-0.331115 -0.353354,0.775528 -0.749131,0.880607 -0.749131,0.198895 0,-0.694258 -0.753099,-1.646372 -1.302238,-1.646372 -0.263165,0 -0.77419,0.232603 -1.135611,0.516898 l -0.657129,0.516898 -0.885663,-0.913773 c -0.487115,-0.502576 -1.034151,-0.913773 -1.215634,-0.913773 -0.181484,0 -0.684109,0.737859 -1.116944,1.639684 l -0.786973,1.639686 -0.174685,-1.044374 c -0.255764,-1.529112 -0.338364,-1.70583 -0.797324,-1.70583 -0.586276,0 -1.963842,1.066091 -2.3932,1.852084 -0.331565,0.60697 -0.362201,0.61622 -0.371922,0.112265 -0.01298,-0.672962 0.874608,-1.541264 2.103829,-2.058114 l 0.92002,-0.38684 -0.03782,-3.000843 -0.03782,-3.000843 0.237216,3.120316 c 0.130469,1.716172 0.370816,3.369947 0.534106,3.675057 0.288974,0.539954 0.310915,0.532593 0.822908,-0.276043 0.631195,-0.996905 1.145382,-1.040463 2.292427,-0.194201 0.78768,0.581133 0.924689,0.604324 1.572757,0.266213 1.049894,-0.547751 1.833064,-0.457991 2.306348,0.264332 0.388512,0.592945 0.468299,0.611733 1.130579,0.266213 0.951073,-0.496183 1.436136,-0.470686 2.057447,0.108154 0.285239,0.265742 0.668694,0.433141 0.852119,0.372002 0.183423,-0.06114 0.657106,0.106642 1.052624,0.372858 0.502412,0.338159 1.077934,0.457134 1.909752,0.394793 0.654844,-0.04908 1.121508,-0.01791 1.037032,0.06927 -0.08448,0.08717 -0.47143,0.184806 -0.859896,0.216956 -0.741236,0.06135 -0.791954,0.155916 -0.714399,1.332103 0.07124,1.080381 -0.325072,0.880554 -0.866876,-0.437097 z m 18.602056,0.767826 c 0,-0.218281 0.115326,-0.396875 0.25628,-0.396875 0.140952,0 0.187746,0.178594 0.103984,0.396875 -0.08376,0.218281 -0.199088,0.396875 -0.256281,0.396875 -0.05719,0 -0.103983,-0.178594 -0.103983,-0.396875 z M 36.246053,69.501979 c -0.344463,-0.435724 -0.557958,-0.860563 -0.474432,-0.944089 0.296447,-0.29645 0.946661,0.162261 1.35827,0.958228 0.559983,1.082887 -0.02397,1.073545 -0.883838,-0.01413 z M 84.62964,69.293456 c 0,-0.129953 0.174128,-0.303096 0.386953,-0.384765 0.212823,-0.08167 0.756399,-0.880359 1.207948,-1.77487 0.451548,-0.894514 0.884952,-1.562431 0.963117,-1.484265 0.220097,0.220093 -1.184994,3.122141 -1.701567,3.514381 -0.541118,0.410879 -0.856451,0.458568 -0.856451,0.129519 z M 38.309534,66.654644 c 0.287043,-0.562652 0.83027,-1.389486 1.207174,-1.837409 0.732301,-0.870292 2.45586,-2.049436 2.675141,-1.830158 0.07276,0.07276 -0.26253,0.376307 -0.745087,0.674542 -1.070481,0.661594 -1.775749,1.452298 -2.594081,2.908324 -0.783011,1.39318 -1.247648,1.465638 -0.543147,0.0847 z m 43.145106,0.493837 c 0,-0.145521 0.347451,-0.264583 0.77211,-0.264583 1.210445,0 1.616816,-0.25831 2.434317,-1.547376 0.574816,-0.906389 0.762323,-1.064152 0.762323,-0.641393 0,0.505707 -1.035113,2.023465 -1.715534,2.515447 -0.404461,0.292444 -2.253216,0.241496 -2.253216,-0.0621 z M 51.821307,66.492097 c 0,-0.325924 1.159364,-2.418736 1.822072,-3.289093 0.378063,-0.496523 1.045493,-1.121156 1.483177,-1.388073 0.882777,-0.538353 0.575284,-0.644599 -0.576046,-0.199036 -0.733157,0.283729 -2.91048,0.606275 -2.266182,0.335709 0.582948,-0.244803 0.356052,-0.640376 -0.595313,-1.037884 -0.509323,-0.212807 -0.926041,-0.432318 -0.926041,-0.487801 0,-0.17044 1.697312,0.271113 2.317009,0.602765 0.483296,0.258652 1.216816,0.150085 4.22711,-0.625652 2.003288,-0.516234 4.264734,-1.195025 5.025443,-1.508421 1.155139,-0.475898 1.330428,-0.633281 1.063522,-0.954882 -0.273458,-0.329498 -0.188852,-0.356356 0.586285,-0.186107 0.498223,0.109426 1.06994,0.363037 1.270479,0.563575 0.200538,0.200541 0.519821,0.364617 0.70952,0.364617 0.389749,0 0.741518,-1.372526 0.507838,-1.98148 -0.199247,-0.519234 0.192704,-0.5055 1.352092,0.04737 1.253501,0.597752 1.587548,0.257088 1.343531,-1.370139 -0.155062,-1.034029 -0.244626,-1.177092 -0.568587,-0.90823 -0.726527,0.602964 -0.602591,0.09954 0.201909,-0.820145 1.311158,-1.498891 2.117225,-3.367072 2.332585,-5.406125 0.108302,-1.025409 0.213079,-1.715551 0.232838,-1.53365 0.01976,0.181901 0.166677,0.330729 0.326488,0.330729 0.448866,0 0.01363,-3.152714 -0.576609,-4.176749 -0.47045,-0.816209 -0.472985,-0.877899 -0.0414,-1.007279 0.252857,-0.0758 1.055053,-0.38019 1.782657,-0.67642 2.052132,-0.8355 2.248958,-0.86838 2.248958,-0.37576 0,0.40065 0.05727,0.39749 0.639128,-0.0353 0.351517,-0.26146 0.815877,-0.77303 1.031907,-1.13683 0.569462,-0.959 0.705895,-3.16209 0.274796,-4.43739 -0.350891,-1.03804 -0.331907,-1.15503 0.431056,-2.65645 1.18635,-2.33458 1.075621,-2.52107 -1.051319,-1.77064 -1.11643,0.3939 -1.121341,0.39288 -0.952937,-0.19844 0.626904,-2.20125 0.535626,-2.38317 -0.765444,-1.52558 -0.434327,0.28629 -1.325319,0.60085 -1.979981,0.69902 -1.869844,0.2804 -2.771703,0.77541 -3.898934,2.14004 -1.496412,1.81157 -1.508032,1.85121 -0.681434,2.32521 l 0.735454,0.42174 -0.992188,-0.15658 c -0.674052,-0.10637 -0.992187,-0.0566 -0.992187,0.15538 0,0.32062 -2.626,-2.3889 -2.638743,-2.72266 -0.0039,-0.10215 -0.572637,-0.56937 -1.263861,-1.03827 -0.998929,-0.67763 -1.148207,-0.7271 -0.727604,-0.2411 l 0.529166,0.61144 -0.902589,-0.46194 c -0.496424,-0.25407 -2.282341,-0.68701 -3.968705,-0.9621 -1.686364,-0.27509 -3.101242,-0.60554 -3.144176,-0.73434 -0.134882,-0.40465 -4.287655,0.89417 -4.287655,1.34101 0,0.10956 -0.16705,0.1351 -0.371223,0.0568 -0.204171,-0.0783 -0.874641,0.13375 -1.48993,0.47133 -0.615289,0.33758 -1.450398,0.79237 -1.855803,1.01065 -0.950521,0.51179 -2.36846,1.78021 -2.36846,2.11871 0,0.1444 -0.1318,0.26254 -0.292892,0.26254 -0.161088,0 -0.221985,-0.18478 -0.135321,-0.41062 0.105786,-0.27567 0.04987,-0.34969 -0.170129,-0.22522 -0.576456,0.32613 -1.518325,1.24941 -1.518325,1.48837 0,0.12711 -0.535781,0.73723 -1.190625,1.35581 -0.654844,0.61859 -1.190625,1.20453 -1.190625,1.30211 0,0.0976 0.654844,0.49805 1.455208,0.88995 1.050682,0.51447 1.455209,0.86158 1.455209,1.24867 0,0.53174 -0.0039,0.53189 -0.482383,0.0184 -0.265309,-0.28477 -0.980819,-0.74254 -1.590022,-1.01725 -1.400977,-0.63175 -2.302171,-0.31882 -2.475108,0.85946 -0.108416,0.7387 -0.05072,0.79901 0.911595,0.95289 2.032826,0.32506 3.941752,2.040785 4.732028,4.253107 0.05198,0.14552 0.592183,0.229732 1.200444,0.187137 0.608264,-0.0426 1.545537,0.106233 2.082834,0.330729 1.204034,0.503076 1.176862,0.503835 1.176862,-0.0328 0,-0.723011 0.345768,-0.153535 0.393451,0.648012 l 0.04399,0.739527 -1.078127,-0.533416 c -1.19856,-0.593 -3.0954,-0.714285 -3.263929,-0.208698 -0.05953,0.178593 -0.360254,0.324715 -0.668271,0.324715 -0.395627,0 -0.477436,-0.0826 -0.27867,-0.281366 0.388239,-0.388239 -0.855824,-2.76193 -1.745202,-3.329871 -0.373611,-0.238578 -0.892287,-0.654746 -1.152618,-0.924816 -0.606592,-0.62929 -2.440623,-0.67904 -2.673363,-0.0725 -0.240014,0.625466 -0.24574,0.620693 0.963879,0.803634 2.003973,0.303078 4.394822,3.472344 4.023003,5.332818 -0.05017,0.251073 -0.161755,0.897839 -0.247951,1.437261 -0.151318,0.946936 -0.557184,1.579364 -2.01345,3.137395 -0.645576,0.690687 -2.606271,1.471428 -3.360174,1.338006 -0.721654,-0.127714 0.322204,1.008833 1.079283,1.175115 1.312677,0.288311 3.989033,-1.226283 4.054602,-2.29457 0.02795,-0.455332 0.359595,-0.896559 1.977921,-2.631448 0.985674,-1.056663 2.90884,-1.322998 3.957077,-0.548005 0.418476,0.309394 0.930714,0.562534 1.138309,0.562534 0.207592,0 0.57054,0.406924 0.806548,0.904277 0.50728,1.069012 1.777246,2.201611 2.739408,2.443099 1.022051,0.256519 4.291553,-0.327824 5.072933,-0.906664 1.067949,-0.791123 2.35975,-2.623473 2.675054,-3.794421 0.445773,-1.655474 0.218665,-1.673281 -1.013867,-0.07948 -1.298998,1.679742 -2.533798,2.344754 -4.286091,2.308307 -1.970736,-0.04099 -3.481504,-0.580961 -4.425305,-1.581679 -0.803026,-0.851471 -0.866362,-1.049602 -0.866362,-2.710257 0,-2.507707 0.741103,-3.891603 2.562614,-4.785272 0.741511,-0.3638 1.510067,-0.79477 1.707899,-0.95771 0.197831,-0.16294 1.098232,-0.37658 2.00089,-0.47475 1.355169,-0.14739 1.821598,-0.0865 2.676345,0.34959 1.152554,0.58799 1.270217,0.90621 1.549926,4.191721 0.107932,1.26778 0.275119,1.918229 0.493051,1.918229 0.457917,0 0.650942,-0.622022 0.650942,-2.097656 0,-1.14994 -0.222618,-1.874179 -1.136539,-3.697474 -0.578221,-1.15356 -1.654712,-1.73018 -3.188677,-1.70801 -3.124906,0.0452 -6.296279,1.71517 -7.591179,3.997411 -0.988171,1.741633 -1.54887,1.837389 -0.676325,0.115501 1.234001,-2.435182 3.537077,-3.966022 6.898492,-4.585392 1.458423,-0.26872 1.852517,-0.24984 2.866411,0.13737 1.4624,0.5585 1.908686,1.04491 2.608993,2.84359 0.732449,1.881218 0.861473,3.082472 0.508074,4.730315 -0.71166,3.318359 -2.847848,6.279203 -5.060564,7.014147 -1.334815,0.443354 -4.132572,0.457613 -5.070035,0.02585 -0.399349,-0.183931 -0.416134,-0.120515 -0.152781,0.57718 0.390398,1.034286 -0.06448,2.149385 -1.123908,2.755189 -0.711904,0.40708 -0.788212,0.580784 -0.788212,1.79424 0,0.979717 -0.113065,1.386914 -0.417534,1.503751 -0.504169,0.193466 -1.731201,-0.65932 -2.092603,-1.454356 -0.294023,-0.646817 -0.478898,-0.692703 -1.211424,-0.300667 -0.342633,0.183372 -0.512101,0.555011 -0.512762,1.124479 -0.0011,0.918855 -0.830019,2.499754 -1.431854,2.730698 -0.435716,0.167201 -2.00674,-0.585036 -2.00674,-0.960863 0,-0.655625 -0.763635,-0.09955 -1.834507,1.335878 -0.645176,0.864815 -1.22037,1.525069 -1.278208,1.467231 -0.191095,-0.191095 0.510466,-1.26792 1.586855,-2.435667 1.050181,-1.139311 1.057611,-1.161949 0.764011,-2.327944 -0.362609,-1.440053 -0.384096,-3.58865 -0.04481,-4.481036 l 0.251672,-0.661945 -0.979276,0.640995 c -0.538602,0.352547 -1.108205,0.747839 -1.265782,0.878427 -0.344149,0.2852 -1.020374,-0.04026 -2.028598,-0.976352 -0.839758,-0.779677 -0.921311,-1.239345 -0.264583,-1.491356 0.254661,-0.09772 0.463021,-0.149873 0.463021,-0.11589 0,0.03398 0.292658,-0.09484 0.650351,-0.286268 0.357693,-0.191434 0.893474,-0.374952 1.190625,-0.407819 0.297151,-0.03287 0.62715,-0.07495 0.733335,-0.09353 0.106182,-0.01857 0.424357,-0.487151 0.707056,-1.041286 0.510315,-1.000297 0.510236,-1.00987 -0.01101,-1.335382 -0.669986,-0.418414 -0.582404,-1.711401 0.125018,-1.845651 0.417187,-0.07917 0.443214,-0.014 0.186201,0.466225 -0.400066,0.747533 -0.126646,1.15769 0.535506,0.803317 0.638172,-0.34154 0.660918,-1.011491 0.05009,-1.475176 -0.435351,-0.330481 -0.432189,-0.351986 0.05292,-0.3599 0.393136,-0.0064 0.442457,-0.08189 0.207213,-0.317137 -0.495869,-0.495869 -3.754831,0.93713 -5.081857,2.234544 l -0.820727,0.802412 0.718071,0.749507 c 0.394941,0.412228 0.936964,0.818978 1.204497,0.90389 0.267534,0.08491 0.425045,0.253699 0.350026,0.375082 -0.240168,0.388601 -1.180331,-0.03363 -1.851838,-0.83167 -1.587677,-1.886847 -1.486977,-5.096122 0.276746,-8.819833 0.590058,-1.245769 0.830821,-2.081789 0.73546,-2.553789 -0.09805,-0.48528 0.01979,-0.86328 0.382056,-1.22554 0.346321,-0.34632 0.446127,-0.64649 0.294529,-0.88579 -0.366975,-0.57928 -0.274762,-0.83032 0.254182,-0.692 0.680517,0.17796 1.15883,-0.14228 1.959899,-1.31219 l 0.687199,-1.0036 -0.422034,-1.85209 c -0.36208,-1.58898 -0.376499,-2.21766 -0.101507,-4.42557 0.239188,-1.92045 0.244739,-2.71509 0.02188,-3.13151 -0.51272,-0.95803 -0.03579,-0.90439 0.945859,0.10638 0.517279,0.53263 1.024072,0.96829 1.126209,0.96814 0.102135,-1.5e-4 0.519991,-0.59546 0.928569,-1.32292 0.408575,-0.72745 0.855059,-1.32264 0.992187,-1.32264 0.137126,0 0.24932,0.46167 0.24932,1.02594 0,1.28113 0.382891,1.60518 2.033307,1.72082 1.700212,0.11913 2.423596,0.53004 2.887435,1.64016 0.421108,1.00785 0.644586,1.06477 2.127091,0.54171 1.561177,-0.55082 3.376192,-0.81511 3.156495,-0.45963 -0.1197,0.19368 0.161369,0.30388 0.82641,0.32402 0.554292,0.0168 1.186397,0.0484 1.404678,0.0703 0.218282,0.0219 0.537284,-0.059 0.708893,-0.17968 0.993161,-0.69862 5.611911,1.213 6.743031,2.79082 0.726612,1.01356 1.116925,0.93061 0.933704,-0.19844 -0.113345,-0.69847 -0.05683,-0.92604 0.229965,-0.92604 0.209132,0 0.380241,0.22839 0.380241,0.50752 0,1.87685 0.841491,1.71757 2.76869,-0.52407 1.024929,-1.19215 1.766853,-1.82966 2.116666,-1.81876 0.482248,0.015 0.472297,0.0433 -0.09512,0.27026 -1.15349,0.46141 -0.417936,0.50297 1.312013,0.0741 1.728478,-0.42847 3.245427,-1.50231 3.570915,-2.52784 0.233751,-0.73648 0.988531,-0.62238 0.768345,0.11615 -0.174599,0.58563 -0.170723,0.58671 0.238339,0.0662 0.580025,-0.73812 0.58084,-4.10567 0.0013,-5.32698 -0.737508,-1.55415 -2.376977,-2.26435 -2.666995,-1.15533 -0.126201,0.4826 -0.605829,0.76464 -0.605829,0.35626 0,-0.21829 1.161042,-2.75778 1.977376,-4.32501 0.597456,-1.14701 0.763834,-1.78093 0.698924,-2.66297 -0.04366,-0.5933 -1.59683,-1.25635 -2.598288,-1.10921 -0.741823,0.10899 -0.900917,0.28383 -1.270352,1.39609 -0.232278,0.69933 -0.464907,1.84746 -0.516956,2.5514 -0.05205,0.70395 -0.164997,1.48826 -0.251,1.74292 -0.08601,0.25466 -0.212166,0.64162 -0.28036,0.8599 -0.253458,0.8113 -0.694537,0.40112 -0.527294,-0.49036 0.15557,-0.82925 0.08041,-0.9504 -1.150069,-1.85365 -2.304701,-1.69181 -3.871995,-2.07546 -6.665315,-1.63157 -1.616024,0.2568 -4.351147,1.61659 -5.322001,2.64589 -1.032653,1.09481 -2.880082,3.81938 -2.880082,4.24751 0,0.18307 -0.164042,0.3958 -0.364535,0.47274 -0.200496,0.0769 -0.821153,1.29356 -1.379239,2.70361 -0.558088,1.41005 -1.059087,2.43058 -1.113334,2.26784 -0.116216,-0.34865 1.224145,-3.94979 1.68443,-4.52555 0.1745,-0.21828 0.585266,-0.93266 0.912809,-1.5875 0.327547,-0.65485 0.669174,-1.25016 0.759177,-1.32292 0.09,-0.0728 0.489017,-0.61247 0.886698,-1.19936 0.397685,-0.58689 1.171258,-1.49014 1.719049,-2.00722 0.986829,-0.9315 3.387169,-2.08509 4.33856,-2.08509 0.271638,0 0.493885,-0.11906 0.493885,-0.26458 0,-0.38851 2.048558,-0.32228 3.751567,0.1213 1.424741,0.3711 2.254334,0.77501 3.737522,1.81974 0.877134,0.61783 1.242161,0.3877 1.242161,-0.78313 0,-0.51013 0.247581,-1.50304 0.55018,-2.20645 0.509653,-1.18472 0.633833,-1.29147 1.685824,-1.44923 0.895483,-0.13428 1.338665,-0.0505 2.095654,0.39612 1.366623,0.80633 1.30643,1.55088 -0.450252,5.56929 -0.413507,0.94589 -0.410943,0.95727 0.298145,1.32291 1.596118,0.82306 2.380941,2.62788 2.258941,5.19479 -0.06011,1.26484 -0.248949,1.91457 -0.807413,2.77812 -0.40092,0.61994 -0.869502,1.58258 -1.041291,2.1392 -0.281337,0.91155 -0.268565,0.99246 0.128622,0.81489 0.24253,-0.10843 0.946981,-0.24841 1.565444,-0.31107 0.912257,-0.0924 1.124479,-0.032 1.124479,0.32013 0,0.55875 -1.001807,2.52964 -1.285824,2.52964 -0.119206,0 -0.359392,0.3131 -0.53375,0.69577 -0.267202,0.58644 -0.242959,0.77759 0.1543,1.21655 0.931095,1.02886 0.360995,4.95605 -0.881787,6.07428 -0.272606,0.24528 -0.878586,0.81083 -1.346626,1.25677 -0.468038,0.445936 -1.04588,0.810794 -1.28409,0.810794 -0.366667,0 -0.408262,0.213106 -0.271129,1.389062 0.08909,0.763985 0.296164,2.043907 0.460158,2.844271 0.163994,0.800365 0.311754,1.654382 0.328356,1.897812 0.01659,0.243432 0.387371,1.150839 0.823934,2.016458 0.753144,1.49334 0.861425,1.589738 2.116667,1.884431 1.613135,0.378714 2.140857,0.667317 3.529472,1.930215 1.932821,1.757839 2.497294,2.879418 2.633523,5.232702 0.165153,2.852933 0.03464,3.218312 -1.398244,3.91446 -1.432197,0.695815 -1.45746,0.699101 -1.45746,0.189548 0,-0.218282 -0.07093,-0.396875 -0.157615,-0.396875 -0.414702,0 -1.61967,0.906933 -1.841706,1.386181 -0.213958,0.461817 -0.525529,0.546476 -2.17996,0.592333 -1.816084,0.05034 -1.966913,0.01003 -2.548602,-0.681281 -0.441468,-0.524653 -0.778902,-0.692779 -1.179941,-0.587907 -0.690118,0.18047 -1.352592,-0.328265 -1.352592,-1.038703 0,-0.418664 -0.07588,-0.466196 -0.363339,-0.227621 -0.199838,0.165848 -0.558374,0.226702 -0.796751,0.135228 -0.335298,-0.128667 -0.39397,-0.05483 -0.259178,0.326165 0.21131,0.597281 0.02643,0.413271 -1.366075,-1.359604 -0.571495,-0.727604 -1.220383,-1.480574 -1.441974,-1.673267 -0.347903,-0.302533 -0.348724,-0.324244 -0.006,-0.159075 0.218281,0.105201 0.668676,0.436115 1.000879,0.735364 l 0.604004,0.544092 -0.17253,-1.467946 c -0.101036,-0.859681 -0.05881,-1.680419 0.101897,-1.980713 0.238426,-0.445503 0.155794,-0.549899 -0.629912,-0.795822 -0.979083,-0.306445 -0.954583,-0.342122 -0.992423,1.445107 -0.01423,0.672523 -0.333254,0.676479 -1.935329,0.024 -0.766911,-0.312338 -1.044647,-0.251664 -3.510804,0.76694 -1.472917,0.608364 -2.958516,1.106114 -3.301336,1.106114 -1.167106,0 -2.276957,0.329843 -2.276957,0.676701 0,0.190286 -0.240866,0.422421 -0.535257,0.515858 -0.58519,0.18573 -3.168909,3.439454 -3.168909,3.990658 0,0.187991 -0.119063,0.415388 -0.264584,0.505325 -0.145521,0.08994 -0.264583,0.09222 -0.264583,0.0051 z m 26.399966,-3.180074 c -0.07236,-1.812767 -0.0897,-1.853893 -0.817216,-1.937317 -0.430128,-0.04932 -0.697246,-0.216535 -0.634008,-0.396875 0.0601,-0.171402 0.305287,-0.276656 0.544852,-0.233897 0.511357,0.09127 0.547933,-0.203118 0.137231,-1.104511 -0.34467,-0.756467 -2.59796,-1.862158 -2.995721,-1.470003 -0.138245,0.136297 -0.420714,0.247811 -0.627708,0.247811 -0.291827,0 -0.307605,-0.08284 -0.07024,-0.368842 0.236344,-0.284779 0.209269,-0.465688 -0.118793,-0.79375 -0.54674,-0.546741 -0.719172,-0.536218 -2.010801,0.122721 -0.590394,0.301199 -1.236115,0.485209 -1.434934,0.408916 -0.486952,-0.186862 -1.439291,1.069168 -1.439291,1.898269 0,0.650703 0.01281,0.655199 0.530789,0.186426 0.646821,-0.585364 1.034444,-0.317262 0.477946,0.330576 -1.334865,1.553953 -0.144886,3.373315 1.501005,2.294887 0.69991,-0.4586 1.25014,-0.324916 0.744373,0.180851 -0.40723,0.40723 -0.09962,1.296196 0.448517,1.296196 0.256249,0 0.614129,-0.178594 0.795287,-0.396875 0.440484,-0.530751 0.892286,-0.506116 0.683763,0.03728 -0.09163,0.238786 0.01111,0.705376 0.228309,1.036865 0.354697,0.541337 0.585089,0.598157 2.26274,0.55803 l 1.867831,-0.04468 z M 71.92964,60.842579 c 0,-0.372335 0.29785,-0.543891 0.685806,-0.395018 0.203218,0.07798 0.303614,0.248373 0.223102,0.378643 -0.184672,0.298805 -0.908908,0.311851 -0.908908,0.01638 z m 9.670225,0.95535 c 0.119385,-0.543552 0.07939,-0.880481 -0.112099,-0.944309 -0.16374,-0.05458 -0.297709,-0.267909 -0.297709,-0.474062 0,-0.519684 -0.338265,-0.468857 -1.154943,0.173543 -0.383427,0.301604 -0.69714,0.42536 -0.69714,0.275016 0,-0.284951 0.297815,-0.587756 1.190625,-1.21058 0.515651,-0.359717 0.517056,-0.391827 0.05501,-1.257202 -0.260784,-0.488429 -0.710129,-1.035423 -0.99854,-1.215538 -0.449681,-0.280832 -0.65541,-0.222943 -1.444067,0.406328 -1.001654,0.799219 -1.121648,1.162873 -0.542356,1.643642 0.207536,0.172241 0.581022,0.960726 0.829969,1.75219 0.248946,0.791464 0.504364,1.439024 0.5676,1.439024 0.06323,0 0.293565,-0.178594 0.511847,-0.396875 0.218281,-0.218281 0.596728,-0.392594 0.840996,-0.387361 0.325382,0.007 0.231905,0.183468 -0.349628,0.660146 -0.436563,0.357844 -0.883047,0.651219 -0.992188,0.651942 -0.10914,7.93e-4 -0.198437,0.234526 -0.198437,0.519562 0,0.496184 0.05546,0.490392 1.302724,-0.136073 1.036023,-0.520364 1.340725,-0.82733 1.488334,-1.499393 z m -2.207292,-2.164673 c 0.39383,-0.377772 0.847341,-0.686858 1.007801,-0.686858 0.483806,0 0.01627,0.506052 -0.88074,0.953322 l -0.843119,0.420392 z m -1.377516,-0.856128 c 0,-0.266523 0.887656,-0.871353 1.292452,-0.88065 0.204568,-0.0047 0.06927,0.225319 -0.306316,0.520753 -0.694838,0.54656 -0.986136,0.652873 -0.986136,0.359897 z m 5.027083,2.188175 c 0,-2.639901 -0.546454,-3.879231 -2.496166,-5.661154 -1.017471,-0.929913 -1.845874,-1.414077 -3.036041,-1.774431 -1.571723,-0.47588 -1.672204,-0.559472 -2.52839,-2.103509 -1.072886,-1.934832 -1.353997,-2.947525 -1.731637,-6.238145 -0.357077,-3.111468 -0.375288,-3.165008 -1.019157,-2.996628 -0.498284,0.130301 -0.505986,0.199966 -0.151339,1.368522 0.205518,0.677178 0.374957,1.716598 0.376534,2.309823 0.0029,1.074479 1.346883,6.286826 1.896639,7.355449 0.494716,0.961628 1.349656,1.751391 1.922656,1.776077 0.302056,0.01302 -0.03176,0.1832 -0.741815,0.378195 -1.761244,0.483672 -2.045711,0.828466 -0.927822,1.124588 0.65574,0.173701 1.052015,0.136892 1.478216,-0.137301 0.320268,-0.206041 0.796518,-0.328612 1.058334,-0.27238 0.346265,0.07437 0.155373,0.269322 -0.70026,0.715174 -1.101463,0.573942 -1.144532,0.636159 -0.677034,0.978 0.651944,0.476713 0.755885,0.463831 1.324157,-0.164102 0.26339,-0.291042 0.624451,-0.529167 0.80236,-0.529167 0.177911,0 0.47475,-0.182279 0.659646,-0.405064 0.285464,-0.343966 0.210534,-0.452487 -0.496771,-0.719465 -0.881081,-0.332571 -1.110687,-0.727554 -0.422929,-0.727554 1.149601,0 2.905104,1.561341 3.658508,3.253867 0.969258,2.177455 1.039246,3.407233 0.258603,4.544068 -0.570986,0.831511 -0.424428,0.956252 0.567667,0.483156 l 0.926041,-0.441598 z m -6.493171,-6.534425 c -0.310258,-0.502007 0.142245,-0.625882 0.603044,-0.165087 0.412469,0.412473 0.413194,0.447273 0.0093,0.447273 -0.240877,0 -0.516435,-0.126984 -0.612357,-0.282186 z m -31.610562,6.549716 c 0.129045,-0.318445 0.304961,-1.013892 0.390925,-1.545437 0.170312,-1.053121 0.817869,-1.627521 2.169469,-1.924383 0.456009,-0.100156 0.891111,-0.383662 0.966888,-0.63001 0.07578,-0.246349 0.257292,-0.831797 0.40336,-1.300996 0.196337,-0.630664 0.184674,-0.837618 -0.04472,-0.79375 -0.193508,0.037 -0.279699,-0.226933 -0.228986,-0.701204 0.054,-0.504952 -0.117108,-0.971762 -0.509141,-1.389063 -0.43516,-0.463206 -0.487865,-0.62852 -0.200385,-0.62852 0.214543,0 0.512371,0.122293 0.66184,0.271761 0.185957,0.185957 0.369988,0.05617 0.582874,-0.411067 0.281527,-0.617881 0.229259,-0.75878 -0.549571,-1.481423 -0.737412,-0.684215 -1.010944,-0.779436 -1.909739,-0.664819 -0.576979,0.07358 -1.185418,0.320273 -1.352087,0.548206 -0.166669,0.227934 -0.408972,0.414428 -0.538448,0.414433 -0.129479,5e-6 -0.567912,0.416724 -0.974299,0.926042 -0.551818,0.691586 -0.63555,0.926033 -0.330729,0.926033 0.224485,0 0.408154,0.185622 0.408154,0.412491 0,0.22687 -0.09061,0.356489 -0.201356,0.288044 -0.33705,-0.208306 -0.964009,0.435475 -1.45229,1.491255 -0.476001,1.02923 -0.648975,3.893627 -0.235127,3.893627 0.125341,0 0.174585,0.278863 0.109429,0.619699 -0.06515,0.340834 0.05022,0.788382 0.256389,0.994548 0.206169,0.206169 0.3293,0.511511 0.273624,0.678537 -0.05568,0.167026 0.161526,0.487723 0.482666,0.712658 0.695032,0.48682 1.457508,0.190974 1.821265,-0.706662 z m 0.04585,-8.915858 c 0.04959,-0.339633 0.239001,-0.666528 0.420902,-0.726435 0.467191,-0.153858 0.410943,0.421931 -0.09017,0.923047 -0.384815,0.384812 -0.41317,0.367956 -0.330729,-0.196612 z m 4.455798,7.113849 c 0,-0.469169 -0.0653,-0.507373 -0.396875,-0.232187 -0.218281,0.181157 -0.396875,0.433861 -0.396875,0.561562 0,0.127704 0.178594,0.232188 0.396875,0.232188 0.228118,0 0.396875,-0.238784 0.396875,-0.561563 z m 0.256865,-1.738913 c 1.087991,-1.454835 1.120992,-1.556123 0.958229,-2.940989 -0.150868,-1.283645 -0.120883,-1.415965 0.285522,-1.260015 0.393144,0.150866 0.385059,0.09282 -0.06024,-0.432448 -1.146699,-1.352627 -1.407697,-1.12063 -1.381284,1.227802 0.01781,1.582563 -0.560953,3.510124 -1.166238,3.884213 -0.255384,0.157834 -0.141348,1.028163 0.134713,1.028163 0.05638,0 0.609563,-0.678027 1.229301,-1.506726 z m 21.591699,-0.378431 c 0.0787,-0.12733 -0.102068,-0.23151 -0.401698,-0.23151 -0.29963,0 -0.544783,-0.119063 -0.544783,-0.264583 0,-0.145521 0.468228,-0.264584 1.040503,-0.264584 0.833247,0 1.076571,-0.113633 1.221566,-0.570476 0.09958,-0.313759 0.475771,-0.8436 0.835969,-1.177422 l 0.65491,-0.606949 -0.684488,-2.063721 c -0.376467,-1.135049 -0.748122,-2.396014 -0.825896,-2.802149 -0.18914,-0.987669 -0.525471,-0.717381 -0.885246,0.711419 -0.162399,0.644938 -0.593759,1.527353 -0.958585,1.96092 -0.364824,0.43357 -0.663316,0.90537 -0.663316,1.048446 0,0.143076 -0.165261,0.397293 -0.36725,0.564928 -0.275174,0.228375 -0.309925,0.55159 -0.138604,1.289169 0.125756,0.541406 0.231486,1.356447 0.234958,1.8112 0.0054,0.705482 0.104095,0.826823 0.672597,0.826823 0.366456,0 0.730671,-0.10418 0.809363,-0.231511 z M 51.552671,54.999695 c 0.0054,-0.849212 -0.145061,-0.633973 -0.354449,0.507119 -0.119552,0.651516 -0.0928,0.808387 0.09023,0.529167 0.14309,-0.218281 0.261988,-0.68461 0.264216,-1.036286 z m 22.133369,0.374828 c 0.08376,-0.218282 0.401495,-0.396875 0.706073,-0.396875 0.43417,0 0.484423,-0.06935 0.232666,-0.321109 -0.251753,-0.251754 -0.476176,-0.166037 -1.03909,0.396875 -0.39489,0.39489 -0.568124,0.717984 -0.384963,0.717984 0.18316,0 0.401553,-0.178594 0.485314,-0.396875 z M 57.139636,50.178497 c 0.947727,-0.317428 1.97947,-1.123505 2.373715,-1.854533 0.177149,-0.328478 0.06111,-0.549995 -0.470614,-0.898393 -0.388155,-0.254331 -0.891847,-0.48328 -1.119315,-0.508778 -0.227465,-0.02551 -0.592169,-0.124518 -0.81045,-0.220046 -0.603578,-0.264152 -3.439359,-0.65677 -3.441214,-0.47644 -7.93e-4,0.08711 -0.596079,0.170426 -1.322628,0.185145 -1.009552,0.02045 -1.258009,-0.04914 -1.053827,-0.295162 0.74663,-0.899631 6.19743,-0.420854 7.725185,0.678551 1.255162,0.903242 1.3604,0.741082 1.193265,-1.838669 -0.16275,-2.512089 -0.454115,-3.260406 -1.445326,-3.712026 -0.807468,-0.36791 -1.205238,-0.36062 -0.971365,0.0178 0.134041,0.21688 -0.102325,0.24855 -0.84428,0.11314 -0.966242,-0.17636 -0.997468,-0.16259 -0.501269,0.22103 0.518282,0.40068 0.515559,0.40858 -0.132291,0.38411 -1.157015,-0.0437 -3.010438,0.301746 -3.191592,0.594865 -0.09617,0.155612 -0.250849,0.272764 -0.343718,0.260334 -0.55105,-0.07376 -0.698024,0.0329 -0.698024,0.506556 0,0.291041 -0.119062,0.529166 -0.264583,0.529166 -0.145521,0 -0.264583,0.165857 -0.264583,0.368567 0,0.202714 -0.150913,0.42648 -0.335362,0.497258 -0.212374,0.0815 -0.358151,0.746837 -0.397505,1.814246 -0.054,1.464762 0.02291,1.780863 0.587256,2.413159 0.357166,0.400182 0.833699,0.727604 1.05896,0.727604 0.225264,0 0.409567,0.111154 0.409567,0.247009 0,0.50568 2.971858,0.67695 4.259998,0.245507 z m -0.266221,-1.446834 c -0.416356,-0.529315 -0.480195,-0.806236 -0.274476,-1.190625 0.41061,-0.767233 0.784286,-0.595384 0.609177,0.280157 -0.135843,0.67922 -0.06623,0.803627 0.533953,0.954264 0.37959,0.09527 0.624427,0.27958 0.544084,0.409578 -0.268529,0.434491 -0.864884,0.24311 -1.412738,-0.453374 z M 38.604492,48.045757 c 0.502528,-0.247282 1.479235,-0.650409 2.170459,-0.895842 1.599147,-0.567809 1.625399,-1.08644 0.132291,-2.613652 -0.862319,-0.882018 -1.384919,-1.187305 -2.241581,-1.309463 -0.993074,-0.14161 -1.166109,-0.08451 -1.558457,0.514292 -0.796047,1.214919 -1.492562,5.260449 -0.991889,5.761122 0.09296,0.09296 0.485471,-0.09556 0.872252,-0.418922 0.386781,-0.323366 1.114399,-0.790255 1.616925,-1.037535 z m 3.706299,-13.855361 c 0.189127,-0.22788 1.364565,-1.01611 2.612086,-1.75162 1.247521,-0.73551 2.333487,-1.43994 2.413262,-1.5654 0.07977,-0.12547 0.615553,-0.39355 1.190625,-0.59574 0.92189,-0.32413 1.035645,-0.4558 0.961577,-1.11301 -0.109537,-0.97196 -0.726328,-1.41408 -2.032661,-1.45702 -1.730518,-0.0569 -2.352283,-0.33665 -2.822377,-1.26995 -0.394255,-0.78273 -0.467677,-0.82409 -0.691004,-0.38925 -0.137433,0.26759 -0.329057,0.81759 -0.425836,1.22221 l -0.175959,0.73568 -0.898011,-0.68495 -0.89801,-0.68494 -0.219403,1.53677 c -0.120668,0.84522 -0.214071,2.42973 -0.20756,3.52114 0.01643,2.7545 0.368173,3.49027 1.193271,2.49608 z m 24.319518,-1.1835 c -0.627401,-0.39678 -0.966367,-0.27372 -0.408527,0.14831 0.280419,0.21215 0.574627,0.32095 0.653796,0.24178 0.07917,-0.0792 -0.0312,-0.25471 -0.245269,-0.39009 z m -5.884828,-3.32452 c -0.08792,-0.0879 -0.316124,-0.0973 -0.507119,-0.0209 -0.211066,0.0845 -0.148373,0.14715 0.159854,0.15985 0.278913,0.0115 0.435184,-0.0511 0.347265,-0.13897 z M 15.904695,65.428689 c 0.0029,-0.582083 0.05712,-0.789053 0.120406,-0.459935 0.06329,0.329117 0.06088,0.805367 -0.0053,1.058333 -0.06622,0.252965 -0.118004,-0.01631 -0.115067,-0.598398 z M 65.476816,64.568794 C 65.243139,64.02309 64.848695,63.27895 64.60027,62.915148 l -0.451684,-0.661459 0.68063,0.608651 c 0.688954,0.616092 1.68216,2.698641 1.287032,2.698641 -0.118012,0 -0.405757,-0.446484 -0.639432,-0.992187 z M 15.836369,63.576606 c -0.137804,-1.34167 -0.114099,-3.384449 0.04221,-3.637465 0.23492,-0.380262 0.399827,2.811417 0.184205,3.565157 -0.156151,0.545846 -0.177091,0.552535 -0.226416,0.07231 z m 33.339105,-1.885537 c -2.254994,-0.431655 -2.775972,-0.58606 -2.593407,-0.768625 0.154906,-0.154909 4.930873,0.802394 5.163447,1.034968 0.225796,0.225792 -0.264564,0.174976 -2.57004,-0.266343 z m -28.575,-0.892588 c -0.713174,-0.713174 -0.733472,-2.86407 -0.03517,-3.726442 0.418086,-0.516313 0.781931,-0.621652 2.367662,-0.685459 2.102206,-0.08459 2.695299,0.235612 2.693598,1.454238 -0.0033,2.387327 -3.524411,4.459345 -5.026094,2.957663 z m 2.919077,-0.401354 c 0.90719,-0.469125 1.578839,-1.630344 1.578839,-2.729662 0,-0.617146 -0.135092,-0.80187 -0.659778,-0.902171 -0.362878,-0.06937 -0.786581,0.02666 -0.941562,0.213405 -0.155041,0.186812 -0.586999,0.284181 -0.960362,0.216477 -0.951161,-0.172477 -2.179922,1.194456 -1.995277,2.219643 0.07154,0.397213 0.247738,0.871032 0.391549,1.052933 0.356761,0.451255 1.645431,0.416068 2.586591,-0.07062 z m -1.843731,-0.90545 c -0.317409,-0.200847 -0.322085,-0.309983 -0.02844,-0.6638 0.19328,-0.232888 0.412794,-0.362058 0.487809,-0.287043 0.07502,0.07501 0.296173,0.0038 0.491463,-0.158295 0.585381,-0.485823 0.400618,-0.03017 -0.240239,0.592463 -0.327422,0.318111 -0.446484,0.494318 -0.264583,0.391567 0.181901,-0.102751 0.330729,-0.06073 0.330729,0.09338 0,0.341111 -0.270354,0.352155 -0.776737,0.03173 z m 64.614568,1.049438 c -1.555549,-0.948457 -1.498175,-3.102385 0.120496,-4.523597 0.565163,-0.496221 1.013354,-0.725871 1.072184,-0.549378 0.0556,0.166791 0.448353,0.303258 0.872787,0.303258 0.424436,0 0.771702,0.126089 0.771702,0.280199 0,0.154109 0.117962,0.207293 0.262139,0.118186 0.144176,-0.08911 0.461843,0.256778 0.705929,0.768628 0.419021,0.878697 0.416801,0.990492 -0.03978,2.002994 -0.463672,1.028237 -1.77823,2.122749 -2.547022,2.12067 -0.201107,-5.29e-4 -0.749403,-0.234977 -1.21844,-0.52096 z m 2.298361,-0.529518 c 1.524593,-1.085607 1.731732,-3.296981 0.336341,-3.590692 -0.397965,-0.08377 -0.917168,-0.255961 -1.153782,-0.382654 -1.184669,-0.634323 -2.90285,2.317538 -2.011923,3.456519 0.398796,0.509831 1.260051,1.020239 1.739828,1.031082 0.195818,0.0044 0.68611,-0.226989 1.089536,-0.514255 z m -1.442358,-1.324589 c -0.107373,-0.173736 -0.07617,-0.434946 0.06936,-0.580467 0.34481,-0.34481 0.618881,0.09865 0.339926,0.550008 -0.162629,0.263139 -0.260954,0.270457 -0.409282,0.03046 z m -40.881334,1.582306 c 0,-0.145521 0.245152,-0.264583 0.544782,-0.264583 0.29963,0 0.471197,0.119062 0.38126,0.264583 -0.08994,0.145521 -0.33509,0.264584 -0.544783,0.264584 -0.209693,0 -0.381259,-0.119063 -0.381259,-0.264584 z m -6.714739,-2.781691 c -1.207958,-1.39917 -1.221621,-1.433124 -0.375965,-0.934173 0.813065,0.479719 1.992913,2.022682 1.740038,2.275557 -0.06081,0.06081 -0.67464,-0.542816 -1.364073,-1.341384 z M 19.572832,54.514627 c 0.03258,-1.614784 0.149412,-1.456545 0.293032,0.396875 0.04792,0.618463 -0.0053,1.124479 -0.118294,1.124479 -0.112986,0 -0.191618,-0.68461 -0.174738,-1.521354 z m 16.902642,-1.669262 c 0,-0.154109 0.119062,-0.206613 0.264583,-0.116676 0.145521,0.08994 0.264583,0.216027 0.264583,0.280199 0,0.06417 -0.119062,0.116676 -0.264583,0.116676 -0.145521,0 -0.264583,-0.12609 -0.264583,-0.280199 z M 19.298445,51.648308 c 0.01269,-0.308226 0.07539,-0.370919 0.159853,-0.159853 0.07643,0.190995 0.06703,0.419198 -0.02089,0.507119 -0.08792,0.08792 -0.150453,-0.06835 -0.138965,-0.347266 z m 13.627233,-0.544989 c -0.218681,-0.569873 0.07162,-0.849553 0.373991,-0.360307 0.183441,0.296813 0.298538,0.213141 0.524553,-0.381322 0.378438,-0.995368 0.09487,-2.995245 -0.555387,-3.916855 -0.282353,-0.400182 -0.420508,-0.723863 -0.307012,-0.719291 0.887359,0.03575 1.774359,4.083844 1.150329,5.249857 -0.358672,0.670179 -0.953768,0.734341 -1.186474,0.127918 z m 46.95177,-0.144311 c -0.868529,-0.932257 -0.64712,-1.976144 0.732981,-3.45584 0.732777,-0.785656 2.029666,-0.967957 3.340529,-0.469569 1.285163,0.488619 0.721733,2.692278 -0.968592,3.788307 -1.339837,0.868764 -2.380462,0.914715 -3.104918,0.137102 z m 3.336089,-0.88804 c 0.792528,-0.604494 0.905087,-0.829027 0.835301,-1.66629 -0.07497,-0.899401 -0.141309,-0.967476 -0.940552,-0.965097 -0.472943,0.0013 -0.861719,-0.117658 -0.863947,-0.264583 -0.0027,-0.177872 -0.06901,-0.178586 -0.198437,-0.0021 -0.106913,0.145754 -0.508656,0.426725 -0.892765,0.624382 -1.119709,0.576186 -1.652664,2.20218 -0.955268,2.914428 0.480539,0.49077 1.93828,0.181062 3.015668,-0.640702 z m -1.882928,-0.197961 c -0.113258,-0.260938 -0.131683,-0.548672 -0.04095,-0.639408 0.268682,-0.268685 0.48527,0.108728 0.361606,0.63011 -0.10963,0.462214 -0.123894,0.462627 -0.320659,0.0093 z M 15.590093,48.043352 c -0.02132,-1.776569 0.03759,-3.15377 0.130919,-3.060443 0.290409,0.290406 0.448414,6.290572 0.165653,6.290572 -0.151161,0 -0.273844,-1.336207 -0.296572,-3.230129 z m 9.86265,2.718229 c -1.12106,-0.683575 -1.307406,-1.397704 -0.680183,-2.606651 0.578691,-1.115402 1.757491,-1.902707 3.260316,-2.177516 0.947171,-0.173204 1.078241,-0.120182 1.691944,0.684421 0.365879,0.479695 0.665237,1.183685 0.665237,1.564424 0,0.899318 -0.635865,2.112877 -1.380277,2.634287 -0.807243,0.565414 -2.546831,0.517014 -3.557037,-0.09897 z M 29.103711,49.9547 c 0.645128,-0.645131 0.774544,-0.971926 0.707252,-1.785938 -0.07805,-0.944139 -0.134622,-1.000641 -1.080092,-1.07877 -0.54875,-0.04535 -0.928676,-0.194175 -0.844281,-0.330729 0.227895,-0.368742 -0.331372,-0.300953 -1.19298,0.1446 -0.956475,0.494612 -1.812995,1.692598 -1.705125,2.384899 0.128793,0.826582 1.112393,1.455552 2.276236,1.455552 0.811973,0 1.22801,-0.178636 1.83899,-0.789614 z m -2.241432,-0.180526 c -0.327059,-0.327059 -0.179592,-1.088683 0.242126,-1.250511 0.69096,-0.265146 0.802895,-0.167071 0.269829,0.236422 -0.415314,0.314362 -0.444063,0.450339 -0.16604,0.785333 0.322883,0.389051 0.0168,0.591468 -0.345915,0.228756 z m -7.533142,-0.220485 c 0.0054,-0.436562 0.06469,-0.583126 0.131774,-0.325694 0.06708,0.257432 0.06267,0.614619 -0.0098,0.79375 -0.07248,0.179131 -0.127363,-0.03149 -0.121971,-0.468056 z m 13.102889,-0.581163 c -0.07735,-0.40464 0.01548,-1.033684 0.206307,-1.397878 0.317481,-0.605933 0.33487,-0.550013 0.204755,0.658434 -0.171495,1.592792 -0.228375,1.695109 -0.411062,0.739444 z m 42.369399,-2.943164 c -0.370898,-0.153159 -0.380711,-0.230454 -0.06615,-0.521001 0.304332,-0.281096 0.369361,-0.2667 0.369361,0.08176 0,0.252307 0.12323,0.34676 0.305464,0.234135 0.189257,-0.116967 0.233643,-0.07258 0.116676,0.116676 -0.103833,0.168005 -0.211526,0.297096 -0.239318,0.286867 -0.02779,-0.01021 -0.24651,-0.09952 -0.486037,-0.198438 z M 15.604379,37.721966 c -0.03798,-3.09361 0.02786,-5.52783 0.146323,-5.40937 0.118461,0.11846 0.242046,2.3793 0.274633,5.02407 0.03259,2.64478 0.09306,5.034001 0.134381,5.309379 0.04132,0.275381 -0.05118,0.545687 -0.205571,0.600686 -0.190852,0.06799 -0.30281,-1.700455 -0.349766,-5.524765 z m 4.11415,5.173041 c -0.09701,-0.09701 -0.176389,-0.712171 -0.176389,-1.367011 0,-1.50325 0.168671,-1.35577 0.327808,0.28663 0.128842,1.329735 0.125043,1.356845 -0.151419,1.080381 z m 29.721528,-3.009671 c 0,-0.56194 0.989388,-1.29752 3.334472,-2.47908 1.324637,-0.6674 2.952713,-1.28807 3.617947,-1.37925 1.576848,-0.21613 3.101748,0.0707 3.101748,0.5834 0,0.30774 -0.112242,0.33412 -0.511773,0.1203 -0.281475,-0.15064 -0.928735,-0.27389 -1.438357,-0.27389 -1.074151,0 -4.5368,1.27217 -5.681798,2.08748 -0.431273,0.30709 -0.913574,0.55835 -1.071779,0.55835 -0.158203,0 -0.436354,0.23813 -0.618112,0.52917 -0.355912,0.5699 -0.732348,0.70021 -0.732348,0.25352 z M 33.87967,39.559806 c -0.27791,-0.33486 -1.372946,-3.99976 -1.372946,-4.59502 0,-0.54806 1.990799,0.60845 2.330399,1.35379 0.382495,0.83949 0.405165,1.98445 0.0574,2.89914 -0.284932,0.74943 -0.591129,0.85264 -1.014852,0.34209 z m 0.890858,-2.47658 c -0.154326,-0.61489 -1.119532,-1.68475 -1.519944,-1.68475 -0.356648,0 -0.24393,0.85353 0.314473,2.38125 0.291042,0.79626 0.538879,1.50895 0.550749,1.58377 0.01188,0.0748 0.198588,-0.27 0.414925,-0.76624 0.216336,-0.49625 0.324244,-1.17756 0.239797,-1.51403 z m -5.987309,-1.23004 c -0.228917,-0.32285 -0.727189,-1.71809 -1.107271,-3.10054 -0.380082,-1.38245 -0.771072,-2.7219 -0.868866,-2.97656 -0.29425,-0.76625 0.488102,-0.54805 1.620664,0.452 0.569948,0.50327 0.887441,0.91999 0.70554,0.92605 -0.181901,0.006 -0.330729,-0.0824 -0.330729,-0.19653 0,-0.11414 -0.334383,-0.40506 -0.743072,-0.64648 l -0.743072,-0.43894 0.475856,1.90325 c 0.697899,2.79134 1.26171,4.15221 1.720271,4.15221 0.31365,0 0.380889,-0.26082 0.30694,-1.19062 -0.108582,-1.36525 0.181618,-1.62173 0.374224,-0.33073 0.151707,1.01686 -0.181922,2.05392 -0.656994,2.0422 -0.185502,-0.005 -0.524574,-0.27246 -0.753491,-0.59531 z m 0.813088,-2.85157 c 0,-0.15411 0.119062,-0.20661 0.264583,-0.11668 0.145521,0.0899 0.264584,0.21603 0.264584,0.2802 0,0.0642 -0.119063,0.11668 -0.264584,0.11668 -0.145521,0 -0.264583,-0.12609 -0.264583,-0.2802 z m 37.041667,-1.22018 c 0,-0.33795 1.015558,-1.27642 1.191204,-1.10078 0.07129,0.0713 -0.167561,0.40882 -0.530789,0.75005 -0.363227,0.34124 -0.660415,0.49907 -0.660415,0.35073 z m -50.992521,-1.93921 c 0,-0.65484 0.0516,-0.92273 0.114662,-0.59531 0.06306,0.32742 0.06306,0.8632 0,1.19063 -0.06306,0.32742 -0.114662,0.0595 -0.114662,-0.59532 z m 17.938807,-0.16797 c -0.319667,-0.40639 -0.54837,-1.08686 -0.54837,-1.6316 0,-1.1159 0.37174,-0.89317 0.429604,0.2574 0.04783,0.95096 0.683633,1.67925 1.269672,1.45437 0.737397,-0.28297 0.449236,-1.11556 -0.83938,-2.42525 -0.855181,-0.86916 -1.045408,-1.16753 -0.595312,-0.93375 0.762285,0.39593 1.269817,0.90236 1.920337,1.91614 0.567201,0.88394 0.573564,1.11563 0.04514,1.64406 -0.593579,0.59358 -1.05406,0.51653 -1.681689,-0.28137 z m 31.861398,-1.04997 c -0.404307,-0.9513 -1.01581,-1.91356 -1.358895,-2.13836 -0.69954,-0.45836 -0.817033,-0.87703 -0.246118,-0.87703 0.207719,0 0.617014,0.30428 0.909545,0.67617 l 0.531871,0.67616 0.2658,-0.96265 c 0.14619,-0.52945 0.751954,-1.59279 1.346142,-2.36297 0.943782,-1.22332 1.321959,-1.48593 2.991842,-2.0776 2.460821,-0.87193 3.535826,-1.08014 3.754014,-0.7271 0.0952,0.15404 0.400455,0.28007 0.678342,0.28007 0.344781,0 0.455919,0.12855 0.349927,0.40476 -0.108408,0.28251 -0.325662,0.34631 -0.719299,0.21124 -1.466016,-0.50303 -4.68767,0.40764 -6.078315,1.71818 -1.081442,1.01915 -1.775021,2.52265 -1.838677,3.98579 -0.07068,1.62449 0.388056,2.23006 1.583616,2.09048 0.481031,-0.0562 0.874604,-0.007 0.874604,0.10935 0,0.1163 -0.12609,0.21145 -0.280199,0.21145 -0.154109,0 -0.225774,0.0893 -0.159255,0.19844 0.06652,0.10914 -0.326986,0.22427 -0.874451,0.25585 -0.988475,0.057 -1.000495,0.0454 -1.730494,-1.67223 z m -46.168101,0.93775 c 0,-0.15411 0.119062,-0.20662 0.264583,-0.11668 0.145521,0.0899 0.264584,0.21603 0.264584,0.2802 0,0.0642 -0.119063,0.11667 -0.264584,0.11667 -0.145521,0 -0.264583,-0.12609 -0.264583,-0.28019 z m 6.879167,-0.77814 c 0,-0.14552 0.126089,-0.26458 0.280198,-0.26458 0.154109,0 0.206613,0.11906 0.116677,0.26458 -0.08994,0.14552 -0.216026,0.26458 -0.280199,0.26458 -0.06417,0 -0.116676,-0.11906 -0.116676,-0.26458 z m 25.172609,-1.19062 c 0,-0.29105 0.102325,-0.7673 0.227391,-1.05834 l 0.22739,-0.52916 v 0.52916 c 0,0.29104 -0.102325,0.76729 -0.22739,1.05834 l -0.227391,0.52916 z m -15.233568,-1.07897 c -0.67142,-0.67142 -0.954461,-1.36197 -0.762876,-1.86123 0.13548,-0.35306 0.248759,-0.21436 0.470551,0.57614 0.212386,0.75698 0.433237,1.04114 0.809178,1.04114 0.790781,0 0.777547,-0.83922 -0.02495,-1.58296 -0.395254,-0.3663 -0.582184,-0.666 -0.415412,-0.666 0.979202,0 1.742157,1.89481 1.044051,2.59292 -0.418706,0.4187 -0.619776,0.40076 -1.120542,-0.10001 z m -20.5867,-1.16999 c -0.292522,-1.00238 -0.256633,-1.48513 0.08501,-1.14348 0.156897,0.15689 0.245387,0.62719 0.196645,1.0451 l -0.08862,0.75984 z m 3.768492,0 c 0,-0.14552 0.119062,-0.26459 0.264583,-0.26459 0.145521,0 0.264584,0.11907 0.264584,0.26459 0,0.14552 -0.119063,0.26458 -0.264584,0.26458 -0.145521,0 -0.264583,-0.11906 -0.264583,-0.26458 z m 5.382097,-0.46768 c -0.168545,-0.10725 -0.390401,-0.64252 -0.493015,-1.1895 -0.102613,-0.54697 -0.288949,-1.05778 -0.414079,-1.13511 -0.448804,-0.27737 -1.081922,-1.94548 -0.868258,-2.28764 0.118158,-0.18922 0.24061,-0.51465 0.272115,-0.72318 0.125788,-0.83261 1.977979,-4.21969 2.350775,-4.29884 0.457215,-0.0971 -1.649337,-2.65833 -2.608657,-3.17174 -0.966874,-0.51746 -2.384082,-0.74263 -2.75203,-0.43726 -0.258773,0.21476 -0.339781,0.14607 -0.339781,-0.2881 0,-0.74847 0.917591,-1.07669 2.110855,-0.75505 1.204104,0.32458 1.763218,0.83111 0.66727,0.60452 l -0.79375,-0.16411 0.79375,0.37242 c 0.436562,0.20484 1.329531,0.97328 1.984375,1.70765 1.960407,2.1985 1.897079,2.02213 1.006613,2.8035 -0.438044,0.38438 -0.733132,0.69887 -0.655752,0.69887 0.07738,0 -0.206525,0.68461 -0.6309,1.52135 -0.77963,1.53721 -1.047564,3.57267 -0.513711,3.90261 0.14552,0.0899 0.264583,-0.0221 0.264583,-0.24897 0,-0.22687 0.161267,-0.41249 0.358372,-0.41249 0.197104,0 0.721271,-0.38696 1.164814,-0.8599 0.443543,-0.47294 1.2803,-1.36591 1.859459,-1.98437 0.579159,-0.61847 1.215852,-1.12183 1.414873,-1.1186 0.214321,0.003 0.09217,0.23248 -0.299601,0.56165 l -0.661459,0.55576 0.661459,-0.43118 c 0.363802,-0.23715 0.9536,-0.63872 1.310666,-0.89238 0.450564,-0.32008 1.155123,-0.46119 2.30264,-0.46119 1.503661,0 1.6462,-0.0479 1.573588,-0.52917 -0.09281,-0.61509 -1.356974,-1.42883 -2.347021,-1.51077 -0.37678,-0.0312 -0.634794,-0.13802 -0.57336,-0.23742 0.06143,-0.0994 -0.06125,-0.2471 -0.272632,-0.32822 -0.502052,-0.19265 -2.179574,-2.75015 -2.399023,-3.65748 -0.09402,-0.38874 -0.866737,-1.4425703 -1.717142,-2.3418403 -1.540671,-1.6292 -1.550744,-1.63461 -2.820808,-1.51481 -2.041026,0.19252 -4.078397,0.80768 -3.932677,1.18742 0.07389,0.19254 -0.07477,0.33333 -0.351945,0.33333 -1.001769,0 -2.41214,2.3847403 -2.479049,4.1917203 -0.02699,0.72886 -0.126637,1.27726 -0.221442,1.21867 -0.234296,-0.1448 -0.503551,1.95452 -0.523983,4.08539 -0.01383,1.44188 -0.06331,1.63286 -0.281773,1.08755 -0.801804,-2.00134 1.328519,-10.3070403 2.89437,-11.2845603 0.839154,-0.52386 5.03859,-1.48247 5.731983,-1.30843 0.809723,0.20322 3.3671,2.42449 3.65983,3.17882 0.404186,1.0415503 1.356058,2.9330103 1.83203,3.6404403 0.598612,0.88969 2.270718,1.51451 2.611885,0.97598 0.182046,-0.28736 0.229925,-0.27071 0.233145,0.081 0.0021,0.24346 0.351584,0.7902 0.776346,1.21496 0.898318,0.89832 1.458799,2.6941 1.247415,3.99672 -0.260308,1.60409 -1.792142,3.56622 -3.38224,4.33233 -2.832137,1.36453 -5.774422,1.93981 -6.749123,1.3196 z m 4.207995,-0.89161 c 2.665358,-0.91095 3.558213,-1.47056 4.477275,-2.80619 0.689948,-1.00268 0.867558,-1.52738 0.873781,-2.5814 l 0.0078,-1.32291 -1.72924,0.0181 c -1.421696,0.0149 -1.914946,0.14427 -2.7734,0.7276 -0.57428,0.39025 -0.877606,0.70953 -0.674051,0.70953 0.56993,0 0.106263,0.33201 -0.511773,0.36646 -0.300212,0.0167 -1.308505,0.68526 -2.240651,1.48563 -1.557029,1.3369 -1.696166,1.54304 -1.71149,2.53559 -0.0092,0.59421 0.06269,1.15976 0.159708,1.25677 0.361751,0.36175 2.521579,0.15785 4.122036,-0.38915 z m -3.372384,-1.02196 c 0.263389,-0.29104 0.583688,-0.52917 0.711775,-0.52917 0.128087,0 0.105444,0.23813 -0.05032,0.52917 -0.155761,0.29104 -0.47606,0.52916 -0.711775,0.52916 -0.37827,0 -0.372364,-0.0621 0.05032,-0.52916 z m 5.688542,-2.36564 c 0,-0.44355 0.469249,-0.55338 0.62543,-0.14639 0.09215,0.24016 -8.28e-4,0.39536 -0.236858,0.39536 -0.213714,0 -0.388572,-0.11203 -0.388572,-0.24897 z m -0.529167,-2.13228 c 0,-0.14552 0.12609,-0.26458 0.280199,-0.26458 0.15411,0 0.206613,0.11906 0.116676,0.26458 -0.08994,0.14552 -0.216027,0.26458 -0.280199,0.26458 -0.06417,0 -0.116676,-0.11906 -0.116676,-0.26458 z m -15.019866,4.23333 c 0,-0.50932 0.05445,-0.71768 0.121,-0.46302 0.06655,0.25466 0.06655,0.67138 0,0.92604 -0.06655,0.25467 -0.121,0.0463 -0.121,-0.46302 z m 57.3532,0.52917 c -0.509323,-0.10721 -0.727605,-0.2106 -0.485069,-0.22975 0.242533,-0.0192 0.486349,-0.17097 0.541814,-0.33736 0.07513,-0.22538 0.249417,-0.22301 0.683506,0.009 0.544684,0.2915 0.824386,0.8648 0.384228,0.78755 -0.109141,-0.0192 -0.615156,-0.12255 -1.124479,-0.22976 z m -53.160362,-2.53559 c 0.01269,-0.30823 0.07539,-0.37092 0.159852,-0.15985 0.07643,0.19099 0.06703,0.4192 -0.02089,0.50712 -0.08792,0.0879 -0.150453,-0.0684 -0.138964,-0.34727 z m 51.043695,-0.58905 c 0,-0.14208 0.188542,-0.33068 0.418984,-0.41911 0.25768,-0.0989 0.378639,-0.0397 0.314192,0.1536 -0.131836,0.39551 -0.733176,0.61327 -0.733176,0.26551 z m -51.064583,-1.32918 c 0,-0.75186 0.117535,-1.36701 0.261189,-1.36701 0.152265,0 0.209272,0.51308 0.136697,1.23032 -0.172534,1.7051 -0.397886,1.78252 -0.397886,0.13669 z m 0.207155,-1.78301 c -0.429544,-0.67604 0.576107,-4.87567 1.16754,-4.87567 0.127283,0 0.099,0.24743 -0.06284,0.54984 -0.161846,0.30241 -0.232255,0.71144 -0.156464,0.90895 0.07579,0.19751 0.02484,0.39676 -0.113225,0.44278 -0.138064,0.046 -0.341864,0.79786 -0.452887,1.67074 -0.111024,0.87289 -0.282978,1.4594 -0.38212,1.30336 z m 59.099786,-2.22984 c 0.12962,-2.18979 -0.01471,-2.68251 -1.105093,-3.7729 -1.173533,-1.1735403 -1.232649,-1.3892303 -0.249238,-0.90936 1.332527,0.65022 2.353774,4.04592 1.567318,5.21143 -0.202112,0.29953 -0.254357,0.16973 -0.212987,-0.52917 z m 4.12609,-2.56831 c 0.138567,-1.86325 0.12583,-1.91413 -0.55707,-2.22528 -0.384384,-0.1751303 -0.698878,-0.4183803 -0.698878,-0.5405403 0,-0.3666 0.418047,-0.25339 1.128816,0.3057 0.580501,0.4566203 0.654674,0.6846003 0.549888,1.6901603 -0.224607,2.15546 -0.572981,2.78995 -0.422756,0.76996 z"
       id="path2217" />
  </g>
</svg>
